<svg version="1.1" xmlns="http://www.w3.org/2000/svg" viewBox="0 0 900.0209655761719 729.3020935058594" width="900.0209655761719" height="729.3020935058594" filter="invert(93%) hue-rotate(180deg)">
  <!-- svg-source:excalidraw -->
  
  <defs>
    <style class="style-fonts">
      @font-face {
        font-family: "Virgil";
        src: url("https://file%2B.vscode-resource.vscode-cdn.net/home/david-prata/.vscode/extensions/pomdtr.excalidraw-editor-3.7.3/public//dist/excalidraw-assets/Virgil.woff2");
      }
      @font-face {
        font-family: "Cascadia";
        src: url("https://file%2B.vscode-resource.vscode-cdn.net/home/david-prata/.vscode/extensions/pomdtr.excalidraw-editor-3.7.3/public//dist/excalidraw-assets/Cascadia.woff2");
      }
      @font-face {
        font-family: "Assistant";
        src: url("https://file%2B.vscode-resource.vscode-cdn.net/home/david-prata/.vscode/extensions/pomdtr.excalidraw-editor-3.7.3/public//dist/excalidraw-assets/Assistant-Regular.woff2");
      }
    </style>
    
  </defs>
  <g stroke-linecap="round" transform="translate(481.8438415527344 308.2864990234375) rotate(0 158.828125 57.5)"><path d="M3.6 45.53 C3.6 45.53, 3.6 45.53, 3.6 45.53 M3.6 45.53 C3.6 45.53, 3.6 45.53, 3.6 45.53 M2.69 52.69 C12.46 42.29, 18.16 33.2, 25.65 26.27 M2.69 52.69 C9.41 46.73, 13.56 40.51, 25.65 26.27 M2.43 59.08 C13.55 49.02, 19.72 36.33, 33.26 23.61 M2.43 59.08 C12.76 46.75, 25.47 34.06, 33.26 23.61 M2.16 65.48 C15.55 53.09, 26.23 37.51, 41.53 20.2 M2.16 65.48 C14.5 51.39, 25.43 39.37, 41.53 20.2 M5.18 68.11 C13.25 57.69, 23.63 49.1, 49.14 17.54 M5.18 68.11 C23.22 47.67, 39.74 29.19, 49.14 17.54 M7.55 71.49 C16.05 58.72, 27.46 47.91, 57.41 14.13 M7.55 71.49 C22.85 53.31, 38.35 35.64, 57.41 14.13 M9.91 74.86 C28.74 53.72, 42.55 36.66, 64.36 12.22 M9.91 74.86 C22.94 60.31, 36.42 44.22, 64.36 12.22 M12.93 77.49 C34.38 54.28, 54.8 27.7, 70.66 11.07 M12.93 77.49 C26.34 62.48, 38.61 48.03, 70.66 11.07 M15.29 80.87 C39.61 55.09, 59.63 26.3, 76.96 9.92 M15.29 80.87 C27.85 66.13, 40.69 51.81, 76.96 9.92 M18.31 83.49 C40.39 60.41, 58.85 35.67, 83.26 8.78 M18.31 83.49 C39.52 56.32, 62.69 31.55, 83.26 8.78 M21.98 85.36 C36.97 65.04, 54.71 45.39, 89.56 7.63 M21.98 85.36 C41.18 61.88, 63.1 36.91, 89.56 7.63 M25.66 87.23 C48.24 57.69, 76.27 30.62, 95.86 6.48 M25.66 87.23 C46.61 63.59, 68.39 37.2, 95.86 6.48 M29.33 89.1 C44.77 70.07, 57.3 55.52, 102.16 5.33 M29.33 89.1 C47.22 68.89, 65.05 49.13, 102.16 5.33 M33.01 90.97 C52.08 69.43, 69.12 49.42, 108.46 4.18 M33.01 90.97 C57.68 61.67, 82.95 31.27, 108.46 4.18 M36.68 92.84 C55.76 72.56, 70.47 51.82, 113.44 4.54 M36.68 92.84 C55.8 71.71, 75.36 49.97, 113.44 4.54 M40.36 94.71 C67.31 66.16, 93.62 33.31, 119.09 4.14 M40.36 94.71 C68.23 63.02, 96.39 30.83, 119.09 4.14 M44.03 96.58 C72.61 61.29, 101.7 29.19, 124.07 4.5 M44.03 96.58 C62.74 76.15, 81.09 53.41, 124.07 4.5 M47.71 98.45 C68.08 72.46, 87.88 50.5, 129.72 4.11 M47.71 98.45 C75.38 68.59, 100.42 37.26, 129.72 4.11 M51.38 100.32 C80.16 65.4, 106.6 32.29, 135.36 3.71 M51.38 100.32 C70.97 76.71, 91.48 51.34, 135.36 3.71 M55.71 101.43 C88.14 66.3, 118.32 28.89, 140.35 4.07 M55.71 101.43 C80.01 74.67, 103.38 49.32, 140.35 4.07 M60.04 102.55 C86.41 71.64, 112.72 41.93, 145.99 3.68 M60.04 102.55 C75.67 81.54, 92.71 62.5, 145.99 3.68 M65.03 102.91 C98.99 66.83, 130.58 29.06, 150.98 4.04 M65.03 102.91 C87.53 77.79, 108.65 53.34, 150.98 4.04 M69.36 104.02 C98.52 69.15, 127.87 36.71, 156.62 3.65 M69.36 104.02 C100.65 69.69, 132.32 33.14, 156.62 3.65 M73.69 105.14 C95.24 81.31, 117.46 54.95, 162.26 3.25 M73.69 105.14 C92.92 81.93, 113.47 59.92, 162.26 3.25 M78.02 106.25 C107.86 69.6, 141.97 34.18, 168.56 2.1 M78.02 106.25 C98.3 82.07, 119.67 57.77, 168.56 2.1 M83.01 106.61 C109.18 75.07, 137.53 41.06, 173.55 2.46 M83.01 106.61 C115.02 70.62, 145.34 36.21, 173.55 2.46 M87.34 107.73 C117.28 72.59, 149.19 33.89, 178.54 2.82 M87.34 107.73 C114.87 76.26, 143.16 44.11, 178.54 2.82 M91.67 108.84 C112.16 85.37, 130.31 64.2, 183.52 3.18 M91.67 108.84 C115.27 81.33, 139.83 54.48, 183.52 3.18 M96 109.96 C131.88 72.07, 163.66 31.29, 188.51 3.54 M96 109.96 C123.36 77.32, 149.46 47.45, 188.51 3.54 M99.68 111.83 C127.02 77.29, 160.59 42.01, 193.5 3.9 M99.68 111.83 C122.92 85.41, 146.63 58.39, 193.5 3.9 M104.67 112.19 C138.88 71.27, 178.03 28.01, 198.48 4.26 M104.67 112.19 C131.29 80.83, 158.1 50.69, 198.48 4.26 M109.65 112.55 C141.06 80.98, 167.79 44.01, 203.47 4.62 M109.65 112.55 C135.7 81.85, 163.89 51.27, 203.47 4.62 M114.64 112.91 C150.17 71.52, 184.04 33.15, 208.46 4.98 M114.64 112.91 C134.62 88.2, 154.94 64.61, 208.46 4.98 M118.97 114.02 C154.64 74.08, 190.4 30.33, 213.44 5.34 M118.97 114.02 C151.41 75.7, 184.95 39.27, 213.44 5.34 M123.96 114.38 C144.48 89.18, 167.03 65.03, 218.43 5.7 M123.96 114.38 C161.98 71.26, 198.35 29.49, 218.43 5.7 M128.95 114.74 C155.23 85.53, 177.32 59.38, 222.76 6.82 M128.95 114.74 C158.61 82.26, 189.02 47.19, 222.76 6.82 M133.93 115.1 C158.43 87.33, 185.4 59.78, 227.09 7.93 M133.93 115.1 C164.72 78.97, 197.33 43.55, 227.09 7.93 M138.92 115.46 C175.77 74.29, 212.03 32.89, 232.08 8.29 M138.92 115.46 C164.08 86.19, 189.43 56.19, 232.08 8.29 M143.91 115.82 C175.89 79.67, 205.93 45.6, 236.41 9.41 M143.91 115.82 C177.18 77.46, 210.14 39, 236.41 9.41 M148.89 116.18 C179.98 81.21, 211.31 43.71, 240.74 10.52 M148.89 116.18 C166.91 94.58, 187.78 71.39, 240.74 10.52 M153.88 116.54 C178.47 84.36, 207.38 56.72, 245.07 11.64 M153.88 116.54 C173.19 92.63, 193.82 70.35, 245.07 11.64 M159.52 116.15 C194.66 76.78, 226.82 37.1, 249.4 12.75 M159.52 116.15 C189.44 83.03, 219.13 49.37, 249.4 12.75 M165.17 115.75 C194.1 81.59, 225.49 50.31, 253.73 13.87 M165.17 115.75 C185.07 92.19, 204.86 69.22, 253.73 13.87 M170.81 115.36 C198.79 82.19, 227.89 49.5, 258.07 14.98 M170.81 115.36 C199.34 82.21, 228.17 50.28, 258.07 14.98 M175.8 115.72 C197.6 90.73, 218.4 68.22, 262.4 16.1 M175.8 115.72 C205.32 82.46, 235.55 47.06, 262.4 16.1 M181.44 115.32 C208.77 88.97, 231.22 57.93, 266.73 17.21 M181.44 115.32 C206.17 85.6, 232.63 56.28, 266.73 17.21 M187.08 114.93 C216.94 83.34, 242.98 48.22, 271.06 18.33 M187.08 114.93 C211.96 85.66, 237.91 58.18, 271.06 18.33 M192.73 114.53 C221.62 82.69, 246.73 49.6, 274.73 20.2 M192.73 114.53 C213.86 89.37, 236.22 64.08, 274.73 20.2 M198.37 114.14 C229.78 76.73, 260.41 42.76, 278.41 22.06 M198.37 114.14 C218.8 92.12, 237.3 69.39, 278.41 22.06 M204.01 113.74 C221.87 94.03, 234.74 77.77, 282.08 23.93 M204.01 113.74 C222.87 91.66, 241.81 69.55, 282.08 23.93 M208.34 114.86 C223.87 95.69, 240.67 75.04, 285.76 25.8 M208.34 114.86 C233.48 85.06, 259.74 54.35, 285.76 25.8 M214.64 113.71 C229.43 96.34, 246.58 79.8, 290.09 26.92 M214.64 113.71 C240.96 83.11, 269.06 52.43, 290.09 26.92 M221.6 111.81 C247.97 83.65, 273.15 53.61, 293.76 28.79 M221.6 111.81 C246.22 82.82, 270.16 55.81, 293.76 28.79 M227.9 110.66 C249.63 84.72, 274.4 59.79, 297.44 30.66 M227.9 110.66 C248.27 85.46, 269.59 62.69, 297.44 30.66 M234.2 109.51 C259.73 82.33, 282.84 52.68, 301.11 32.53 M234.2 109.51 C247.84 93.14, 261.92 77.69, 301.11 32.53 M240.5 108.36 C260.74 87.54, 279.13 61.31, 304.13 35.15 M240.5 108.36 C261.17 83.66, 283.25 59.49, 304.13 35.15 M246.79 107.21 C265.52 85.45, 281.09 67.79, 306.5 38.53 M246.79 107.21 C265.13 85.82, 283.91 64.17, 306.5 38.53 M255.72 103.04 C276.32 78.3, 296.83 56.55, 309.51 41.15 M255.72 103.04 C270.47 87.26, 285.74 69.67, 309.51 41.15 M263.98 99.63 C277.29 83.84, 288.12 71.42, 311.88 44.53 M263.98 99.63 C275.59 86.27, 285.83 75.28, 311.88 44.53 M271.6 96.97 C285.1 82.56, 299.42 64.72, 314.9 47.16 M271.6 96.97 C281.95 82.76, 293 70.49, 314.9 47.16 M279.86 93.56 C289.31 82.1, 297.36 72.44, 317.26 50.54 M279.86 93.56 C292.98 79.74, 305.71 64.88, 317.26 50.54 M288.13 90.14 C292.56 84.82, 300.33 76.84, 316.34 57.69 M288.13 90.14 C294.63 82.61, 301.71 75.77, 316.34 57.69 M294.43 88.99 C301.72 81.08, 309.41 70.61, 315.42 64.84 M294.43 88.99 C298.08 83.91, 303.2 79.16, 315.42 64.84" stroke="#fa5252" stroke-width="0.5" fill="none"></path><path d="M110.72 2.27 C126.6 -0.41, 148.44 0.59, 166.73 0.91 C185.02 1.24, 204.03 1.81, 220.46 4.22 C236.89 6.64, 252.09 10.95, 265.32 15.42 C278.54 19.89, 291.23 25.28, 299.82 31.05 C308.42 36.82, 314.55 43.57, 316.89 50.04 C319.24 56.51, 317.8 63.59, 313.9 69.86 C310.01 76.13, 303.29 82.22, 293.53 87.66 C283.77 93.1, 269.91 98.37, 255.32 102.52 C240.73 106.67, 223.13 110.46, 205.97 112.57 C188.81 114.67, 170.44 115.61, 152.36 115.15 C134.28 114.7, 114.34 112.31, 97.48 109.86 C80.61 107.41, 64.42 104.8, 51.17 100.44 C37.92 96.08, 26.17 89.57, 17.99 83.69 C9.8 77.81, 4.52 71.47, 2.07 65.17 C-0.38 58.87, -0.46 52.43, 3.29 45.89 C7.04 39.36, 14.7 31.75, 24.58 25.96 C34.46 20.17, 47.09 15.15, 62.56 11.16 C78.03 7.16, 107.12 3.51, 117.39 1.99 C127.66 0.47, 123.67 1.04, 124.17 2.03 M120.44 3.06 C136.06 0.74, 155.27 0.87, 173.37 1.27 C191.46 1.67, 212.27 2.56, 229 5.44 C245.73 8.33, 261.48 13.61, 273.75 18.59 C286.02 23.56, 295.21 29.51, 302.61 35.29 C310 41.07, 316.43 46.74, 318.1 53.28 C319.77 59.82, 317.65 68.43, 312.65 74.55 C307.66 80.68, 298.64 85, 288.12 90.05 C277.61 95.09, 264.7 100.88, 249.56 104.82 C234.42 108.76, 214.86 112.11, 197.27 113.71 C179.69 115.31, 162.12 115.03, 144.04 114.41 C125.97 113.79, 105.2 112.76, 88.81 110 C72.41 107.23, 58.06 102.69, 45.69 97.84 C33.32 92.99, 21.97 86.79, 14.6 80.9 C7.22 75, 2.69 68.9, 1.42 62.46 C0.15 56.03, 2.28 48.83, 6.97 42.29 C11.66 35.75, 19.14 28.56, 29.58 23.23 C40.03 17.89, 54.45 13.78, 69.62 10.29 C84.8 6.8, 112.23 3.57, 120.65 2.31 C129.06 1.05, 119.73 2.11, 120.13 2.72" stroke="#1971c2" stroke-width="1" fill="none"></path></g><g stroke-linecap="round" transform="translate(484.3334655761719 435.1120300292969) rotate(0 158.828125 57.5)"><path d="M4.3 43.49 C4.3 43.49, 4.3 43.49, 4.3 43.49 M4.3 43.49 C4.3 43.49, 4.3 43.49, 4.3 43.49 M3.38 50.64 C10.46 43.75, 14.33 40.03, 19.78 31.77 M3.38 50.64 C6 46.04, 10.6 41.88, 19.78 31.77 M2.46 57.79 C14.06 45.02, 22.16 32.33, 31.33 24.58 M2.46 57.79 C12.51 45.94, 22.29 35.38, 31.33 24.58 M2.2 64.19 C13.23 52.24, 23.78 39.84, 39.6 21.17 M2.2 64.19 C14.89 49.27, 29.23 33.46, 39.6 21.17 M4.56 67.57 C18.83 52.66, 28.1 38.42, 47.86 17.76 M4.56 67.57 C17.39 52.24, 31.37 37.59, 47.86 17.76 M7.58 70.19 C21.43 54.2, 34.15 40.01, 56.13 14.34 M7.58 70.19 C23.69 53.62, 39.06 35.85, 56.13 14.34 M9.94 73.57 C27.64 51.26, 47.66 28.58, 64.4 10.93 M9.94 73.57 C25.32 55.93, 39.92 39.18, 64.4 10.93 M12.31 76.95 C28.91 56.43, 47.25 33.67, 70.7 9.78 M12.31 76.95 C30 58.87, 46.91 38.97, 70.7 9.78 M14.67 80.33 C26.87 66.35, 40.94 48.61, 77 8.63 M14.67 80.33 C31.59 60.95, 48.81 40.54, 77 8.63 M17.03 83.71 C41.71 55.37, 64.38 29.78, 82.64 8.24 M17.03 83.71 C34.77 62.69, 52.1 44.77, 82.64 8.24 M20.71 85.58 C35.78 68.06, 48.73 55.35, 88.94 7.09 M20.71 85.58 C39.64 63.85, 58.62 41.4, 88.94 7.09 M24.38 87.45 C41.34 65.22, 63.64 42.34, 95.24 5.94 M24.38 87.45 C45.11 63.58, 66.88 40.09, 95.24 5.94 M28.06 89.32 C52.08 62.76, 71.81 35.24, 100.88 5.54 M28.06 89.32 C54.34 58.9, 80.02 28.04, 100.88 5.54 M32.39 90.43 C49.7 68.77, 67.34 47.2, 107.18 4.39 M32.39 90.43 C51.41 66.91, 72.97 44.53, 107.18 4.39 M36.06 92.3 C50.57 74.6, 70.41 53.55, 113.48 3.24 M36.06 92.3 C58.79 66.45, 83.42 38.06, 113.48 3.24 M39.74 94.17 C57.52 71.29, 76.6 51.02, 118.47 3.6 M39.74 94.17 C71.42 58.54, 101.09 23.15, 118.47 3.6 M43.41 96.04 C61.19 72.56, 81.53 52.01, 124.11 3.21 M43.41 96.04 C72.31 63.88, 101.69 28.9, 124.11 3.21 M47.09 97.91 C63.84 76.67, 82.29 56.94, 129.75 2.82 M47.09 97.91 C66.87 75.18, 86.86 53.96, 129.75 2.82 M50.76 99.78 C70.31 78.13, 88.69 56.06, 135.39 2.42 M50.76 99.78 C78.41 67.49, 106.68 35.05, 135.39 2.42 M55.09 100.89 C71.04 80.08, 89.1 61.33, 141.04 2.03 M55.09 100.89 C80.26 69.89, 107.91 39.34, 141.04 2.03 M59.42 102.01 C77.3 81.39, 93.47 60.24, 146.68 1.63 M59.42 102.01 C85.46 72.81, 108.94 43.65, 146.68 1.63 M64.41 102.37 C87.43 76.91, 106.63 52.84, 152.32 1.24 M64.41 102.37 C93.3 71.96, 120.35 40.19, 152.32 1.24 M68.74 103.48 C102.26 64.28, 135.17 28.14, 157.97 0.84 M68.74 103.48 C90.86 78.29, 113.27 53.86, 157.97 0.84 M73.07 104.6 C105.63 69.04, 140.18 31.51, 163.61 0.45 M73.07 104.6 C95.92 78.65, 119.23 50.98, 163.61 0.45 M77.4 105.71 C105.3 72.48, 134.54 41.4, 168.6 0.81 M77.4 105.71 C102.05 76.6, 127.03 47.8, 168.6 0.81 M81.74 106.83 C102.85 81.39, 125.33 59.41, 173.58 1.17 M81.74 106.83 C112.03 71.05, 142.95 35.88, 173.58 1.17 M86.07 107.94 C119 69.99, 153.36 33.9, 178.57 1.53 M86.07 107.94 C123.72 66.55, 160.21 22.96, 178.57 1.53 M90.4 109.06 C121.5 73.7, 150.87 38.75, 183.56 1.89 M90.4 109.06 C116.36 79.06, 142.18 49.02, 183.56 1.89 M95.38 109.42 C115.88 86.04, 138.21 63.72, 188.54 2.25 M95.38 109.42 C121.68 77, 151.24 44.44, 188.54 2.25 M99.72 110.53 C137 69.37, 172.53 23.57, 193.53 2.61 M99.72 110.53 C119.99 88.02, 139.72 66.85, 193.53 2.61 M104.7 110.89 C141.06 71.56, 172.21 32.61, 198.52 2.97 M104.7 110.89 C123.84 87.47, 145.55 65.3, 198.52 2.97 M109.69 111.25 C139.84 77.38, 169.22 39.08, 202.85 4.08 M109.69 111.25 C143.04 73.11, 175.13 36.27, 202.85 4.08 M114.68 111.61 C139.32 82.61, 167.21 52.21, 207.84 4.44 M114.68 111.61 C137.07 86.19, 159.45 61.46, 207.84 4.44 M119.66 111.97 C147.75 80.24, 174.51 48.63, 212.82 4.8 M119.66 111.97 C149.65 79.6, 178.48 44.17, 212.82 4.8 M123.99 113.09 C157.68 72.91, 193.51 34.51, 217.81 5.16 M123.99 113.09 C143.35 91.61, 161.74 69.04, 217.81 5.16 M128.98 113.45 C150.63 86.36, 176.88 62.13, 222.8 5.52 M128.98 113.45 C153.82 86.29, 177.79 57.77, 222.8 5.52 M133.97 113.81 C152.92 93.62, 173.63 69.69, 227.13 6.64 M133.97 113.81 C153.88 89.45, 174.55 65.88, 227.13 6.64 M138.96 114.17 C174.7 72.89, 214.66 28.94, 231.46 7.75 M138.96 114.17 C168.95 80.16, 197.67 45.39, 231.46 7.75 M143.94 114.53 C178.49 73.66, 214.88 36.46, 236.45 8.11 M143.94 114.53 C175.62 78.48, 207.79 43.39, 236.45 8.11 M148.93 114.89 C179.39 79.09, 211.3 45.24, 240.78 9.23 M148.93 114.89 C179.74 80.82, 209.47 44.43, 240.78 9.23 M153.92 115.25 C171.92 90.79, 191.38 68.19, 245.11 10.34 M153.92 115.25 C177.37 86.36, 202.35 57.6, 245.11 10.34 M158.9 115.61 C185.66 82.12, 213.96 49.74, 249.44 11.46 M158.9 115.61 C188.99 79.43, 222.07 43.74, 249.44 11.46 M164.55 115.21 C182.94 93.58, 202.62 72.32, 254.43 11.82 M164.55 115.21 C187.95 88.71, 212.32 59.52, 254.43 11.82 M170.19 114.82 C203.29 80.49, 234.41 41.85, 258.76 12.93 M170.19 114.82 C198.1 81.39, 228.16 48.43, 258.76 12.93 M175.83 114.42 C196.06 88.86, 217.52 67.95, 263.09 14.05 M175.83 114.42 C198.37 88.36, 223.06 61.21, 263.09 14.05 M181.48 114.03 C211.05 78.08, 242.87 42.69, 267.42 15.16 M181.48 114.03 C200.12 92.62, 218.43 71.64, 267.42 15.16 M186.46 114.39 C215.07 81.37, 244.71 46.04, 271.09 17.03 M186.46 114.39 C214.34 82.96, 242.57 51.41, 271.09 17.03 M192.11 113.99 C222.4 78.63, 256.41 38.76, 274.77 18.9 M192.11 113.99 C216.19 85.21, 239.1 59.37, 274.77 18.9 M197.75 113.6 C226.68 78.27, 257.02 44.99, 278.44 20.77 M197.75 113.6 C228.28 77.55, 257.52 42.33, 278.44 20.77 M203.39 113.21 C235.05 77.87, 266.25 44.34, 282.12 22.64 M203.39 113.21 C218.35 95.17, 234.08 76.37, 282.12 22.64 M209.04 112.81 C229.1 93.09, 244.31 70.23, 285.79 24.51 M209.04 112.81 C234.13 85.53, 257.97 56.92, 285.79 24.51 M215.99 110.91 C233.24 87.98, 253.8 66.68, 289.47 26.38 M215.99 110.91 C240.63 82.77, 266.21 54.02, 289.47 26.38 M222.29 109.76 C247.76 79.28, 274.82 51.31, 293.14 28.25 M222.29 109.76 C240.3 89.41, 257.48 69.26, 293.14 28.25 M228.59 108.61 C255.8 78.57, 283 49.29, 296.82 30.12 M228.59 108.61 C245.68 88.39, 265.19 66.88, 296.82 30.12 M234.89 107.46 C251.53 87.31, 264.81 72.02, 300.49 31.99 M234.89 107.46 C254.42 86.38, 274.08 63.51, 300.49 31.99 M241.84 105.55 C262.78 82.78, 278.69 60.73, 302.86 35.37 M241.84 105.55 C257.91 85.28, 274.27 66.61, 302.86 35.37 M248.14 104.41 C271.92 78.28, 292.33 52.97, 305.88 37.99 M248.14 104.41 C270.51 78.74, 292.9 52.18, 305.88 37.99 M255.1 102.5 C268.19 86.8, 282.17 72.68, 308.24 41.37 M255.1 102.5 C267.67 88.2, 280.52 72.76, 308.24 41.37 M262.71 99.84 C273.25 86.66, 285.37 73.29, 310.6 44.75 M262.71 99.84 C274.23 86.72, 286.38 73.44, 310.6 44.75 M270.32 97.18 C285.44 79.22, 302.31 60.34, 313.62 47.37 M270.32 97.18 C285.96 78.4, 301.37 61.16, 313.62 47.37 M277.93 94.53 C288.58 85.82, 297.95 72.65, 315.98 50.75 M277.93 94.53 C293.86 77.16, 308.1 60.89, 315.98 50.75 M284.89 92.62 C297.38 77.55, 308.92 64.24, 315.72 57.15 M284.89 92.62 C292.01 84.18, 300.85 76.41, 315.72 57.15 M291.84 90.72 C294.99 84.25, 302.36 77.4, 315.46 63.55 M291.84 90.72 C299.86 80.75, 309.65 70.1, 315.46 63.55" stroke="#fa5252" stroke-width="0.5" fill="none"></path><path d="M221.67 5.3 C238.58 6.66, 254.78 10.42, 267.98 14.96 C281.18 19.49, 292.89 26.47, 300.89 32.5 C308.88 38.53, 313.79 44.74, 315.97 51.15 C318.16 57.56, 318.04 64.48, 314 70.96 C309.96 77.44, 301.82 84.74, 291.73 90.02 C281.63 95.3, 267.85 98.9, 253.44 102.66 C239.03 106.42, 222.47 110.52, 205.26 112.59 C188.04 114.65, 168.39 115.51, 150.15 115.05 C131.92 114.59, 112.61 112.47, 95.84 109.83 C79.08 107.19, 62.89 103.72, 49.58 99.22 C36.26 94.72, 23.91 88.81, 15.95 82.83 C7.99 76.86, 3.74 69.96, 1.83 63.37 C-0.08 56.78, 0.3 49.44, 4.47 43.28 C8.65 37.13, 16.88 31.86, 26.88 26.41 C36.87 20.96, 50.11 14.44, 64.44 10.58 C78.77 6.72, 95.72 4.98, 112.86 3.26 C129.99 1.54, 148.14 -0.25, 167.26 0.26 C186.37 0.77, 216.9 5.08, 227.54 6.3 C238.18 7.51, 232.27 6.92, 231.11 7.56 M186.42 0.05 C203.74 0.7, 223.59 5.51, 239.34 9.03 C255.1 12.55, 269.47 16.29, 280.96 21.15 C292.44 26.01, 302.21 32.05, 308.25 38.2 C314.29 44.36, 317.32 51.54, 317.21 58.07 C317.11 64.61, 313.82 71.13, 307.62 77.42 C301.43 83.7, 291.81 90.97, 280.02 95.8 C268.24 100.64, 252.72 103.18, 236.94 106.42 C221.15 109.65, 202.92 114.03, 185.32 115.19 C167.72 116.35, 148.98 114.49, 131.32 113.38 C113.66 112.27, 95.3 111.79, 79.36 108.55 C63.43 105.32, 47.17 99.34, 35.7 93.98 C24.24 88.62, 16.37 82.53, 10.56 76.42 C4.74 70.31, 0.82 63.98, 0.82 57.33 C0.82 50.67, 4.5 42.69, 10.57 36.49 C16.63 30.29, 25.55 25.12, 37.22 20.12 C48.9 15.12, 64.7 9.84, 80.62 6.49 C96.54 3.14, 114.98 1.1, 132.74 0.04 C150.5 -1.03, 178.31 -0.46, 187.18 0.1 C196.06 0.65, 186.33 2.1, 186 3.36" stroke="#1971c2" stroke-width="1" fill="none"></path></g><g stroke-linecap="round" transform="translate(39.968841552734375 462.76304626464844) rotate(0 73 60)"><path d="M7.76 31.92 C7.76 31.92, 7.76 31.92, 7.76 31.92 M7.76 31.92 C7.76 31.92, 7.76 31.92, 7.76 31.92 M5.53 40.58 C10.74 31.03, 17.87 26.98, 29.8 12.66 M5.53 40.58 C14.88 28.64, 25.22 18.16, 29.8 12.66 M2.64 50 C12.75 37.76, 22.27 30.05, 37.42 10 M2.64 50 C16.39 35.37, 29.56 18.15, 37.42 10 M1.07 57.91 C19.88 37.71, 35.23 18.38, 45.03 7.34 M1.07 57.91 C18.31 37.86, 36.61 17.42, 45.03 7.34 M2.12 62.79 C18.38 44.73, 33.7 26.83, 53.29 3.93 M2.12 62.79 C21.87 40.8, 41.39 17.22, 53.29 3.93 M3.17 67.68 C13.88 54.83, 26.74 40.88, 60.25 2.02 M3.17 67.68 C16.17 54.46, 28.79 38.72, 60.25 2.02 M4.22 72.57 C24.48 50.7, 41.9 27.72, 65.24 2.38 M4.22 72.57 C22.65 50.32, 41.76 29.38, 65.24 2.38 M5.27 77.46 C23.46 60.2, 37.35 37.48, 70.22 2.74 M5.27 77.46 C29.76 50.09, 54.73 21.81, 70.22 2.74 M6.32 82.35 C33.63 51.3, 57.18 23.23, 75.87 2.35 M6.32 82.35 C21.24 64.08, 36.66 45.1, 75.87 2.35 M8.69 85.73 C25.14 67.54, 42.18 48.84, 80.85 2.71 M8.69 85.73 C32.15 60.05, 57.09 31.44, 80.85 2.71 M11.05 89.11 C35.3 60.43, 63.11 29.93, 85.84 3.07 M11.05 89.11 C27.53 70.02, 44.53 51.06, 85.84 3.07 M14.07 91.73 C31.59 68.95, 55.4 47.21, 91.48 2.67 M14.07 91.73 C37.71 64.68, 60.32 38.09, 91.48 2.67 M16.43 95.11 C49.93 59.08, 79.27 22.87, 95.16 4.54 M16.43 95.11 C45.4 61.23, 74.45 28.51, 95.16 4.54 M19.45 97.73 C43.95 68.13, 69.3 41.07, 99.49 5.66 M19.45 97.73 C38.38 74.6, 59.97 51.73, 99.49 5.66 M22.47 100.36 C52.84 67.39, 80.04 32.68, 103.16 7.53 M22.47 100.36 C51.42 66.03, 82.64 31.89, 103.16 7.53 M24.83 103.74 C52.68 68.34, 83.8 35.4, 106.84 9.4 M24.83 103.74 C50.93 73.86, 78.76 42.88, 106.84 9.4 M27.85 106.36 C56.64 75.34, 83.97 41.01, 111.17 10.51 M27.85 106.36 C51.88 78.53, 76.43 49.88, 111.17 10.51 M31.53 108.23 C50.12 87.17, 70.08 67.06, 114.84 12.38 M31.53 108.23 C62.55 70.99, 94.97 35.06, 114.84 12.38 M35.86 109.35 C58.54 84.2, 82.88 54.65, 118.52 14.25 M35.86 109.35 C56.85 84.76, 77.81 59.63, 118.52 14.25 M39.53 111.21 C64.38 80.98, 87.33 55.09, 122.19 16.12 M39.53 111.21 C61.76 83.95, 86.9 56.69, 122.19 16.12 M43.86 112.33 C66.98 86.33, 89.01 64.45, 125.21 18.75 M43.86 112.33 C72.28 80.59, 100.57 48.47, 125.21 18.75 M47.54 114.2 C66.42 92.08, 82.51 73.89, 127.58 22.12 M47.54 114.2 C79.58 79.2, 111.18 42.43, 127.58 22.12 M51.21 116.07 C80.69 83.78, 110.16 49.63, 130.6 24.75 M51.21 116.07 C72.48 91.52, 95.25 65.36, 130.6 24.75 M55.54 117.18 C75.65 92.64, 99.46 70.85, 132.96 28.13 M55.54 117.18 C77.64 91.36, 100.27 65.57, 132.96 28.13 M60.53 117.54 C87.5 81.4, 116.93 49.99, 135.32 31.51 M60.53 117.54 C88.47 87.31, 114.77 55.2, 135.32 31.51 M65.52 117.9 C88.11 94.59, 107.6 69.69, 138.34 34.13 M65.52 117.9 C82.85 97.6, 99.4 78.07, 138.34 34.13 M70.5 118.26 C95.01 88.16, 120.6 61.55, 140.05 38.26 M70.5 118.26 C90.22 93.59, 112.92 69.09, 140.05 38.26 M76.15 117.87 C90.65 100.6, 107.36 83.51, 141.1 43.15 M76.15 117.87 C97.26 94.42, 117.03 69.73, 141.1 43.15 M81.13 118.23 C97.01 100.09, 113.25 81.81, 142.8 47.29 M81.13 118.23 C94.1 102.69, 108.43 86.24, 142.8 47.29 M86.12 118.59 C105.5 95.52, 128.99 69.33, 143.85 52.17 M86.12 118.59 C103.4 97.82, 122.79 75.95, 143.85 52.17 M93.08 116.69 C113.64 93.91, 135.97 70.34, 145.56 56.31 M93.08 116.69 C106.98 100.6, 121.68 84.06, 145.56 56.31 M100.03 114.78 C112.88 101.96, 122.08 87.84, 146.61 61.2 M100.03 114.78 C110.85 102.94, 121.38 89.14, 146.61 61.2 M107.64 112.12 C116.77 99.01, 128.65 88.5, 143.07 71.37 M107.64 112.12 C119.87 98.98, 129.77 85.97, 143.07 71.37 M115.25 109.46 C120.04 104.04, 125.36 96.21, 138.87 82.29 M115.25 109.46 C124.21 99.21, 132.51 90.37, 138.87 82.29" stroke="#fa5252" stroke-width="0.5" fill="none"></path><path d="M91.82 2.67 C102.07 3.85, 113.43 9.23, 121.25 14.61 C129.07 19.99, 134.54 27.21, 138.76 34.95 C142.97 42.69, 146.8 52.4, 146.54 61.04 C146.27 69.68, 142.18 78.86, 137.18 86.8 C132.19 94.73, 124.91 103.37, 116.55 108.65 C108.19 113.93, 97.23 117.03, 87 118.47 C76.78 119.9, 65.28 119.42, 55.2 117.26 C45.12 115.1, 34.66 111.04, 26.53 105.49 C18.39 99.95, 10.69 92.02, 6.39 83.99 C2.09 75.96, 0.49 66, 0.72 57.32 C0.95 48.65, 2.97 39.32, 7.76 31.92 C12.55 24.51, 21.02 17.88, 29.45 12.89 C37.87 7.9, 46.99 3.46, 58.31 1.97 C69.63 0.49, 90.09 3.25, 97.35 3.97 C104.62 4.68, 102.3 5.5, 101.9 6.26 M78.71 -0.86 C88.53 -0.96, 100.51 3.54, 109.51 8.4 C118.52 13.25, 126.57 20.83, 132.74 28.29 C138.91 35.74, 144.71 44.66, 146.54 53.12 C148.36 61.58, 147.21 71, 143.71 79.04 C140.2 87.09, 133.06 95.12, 125.53 101.38 C117.99 107.64, 108.41 113.57, 98.48 116.6 C88.56 119.64, 76.37 120.51, 65.97 119.59 C55.57 118.68, 44.95 115.83, 36.08 111.13 C27.2 106.42, 18.68 98.81, 12.7 91.37 C6.71 83.93, 1.66 74.84, 0.17 66.49 C-1.33 58.13, 0.43 49.17, 3.71 41.25 C7 33.34, 12.66 25.38, 19.87 18.99 C27.07 12.61, 36.99 6.23, 46.94 2.93 C56.89 -0.38, 74.03 -0.74, 79.56 -0.84 C85.08 -0.94, 80.04 1.3, 80.07 2.31" stroke="#1971c2" stroke-width="1" fill="none"></path></g><g transform="translate(77.4400886403742 485.3366393934556) rotate(0 35.40995788574219 37.5)"><text x="35.40995788574219" y="0" font-family="Virgil, Segoe UI Emoji" font-size="20px" fill="#1971c2" text-anchor="middle" style="white-space: pre;" direction="ltr" dominant-baseline="text-before-edge">Código </text><text x="35.40995788574219" y="25" font-family="Virgil, Segoe UI Emoji" font-size="20px" fill="#1971c2" text-anchor="middle" style="white-space: pre;" direction="ltr" dominant-baseline="text-before-edge">com</text><text x="35.40995788574219" y="50" font-family="Virgil, Segoe UI Emoji" font-size="20px" fill="#1971c2" text-anchor="middle" style="white-space: pre;" direction="ltr" dominant-baseline="text-before-edge">AGPL</text></g><g stroke-linecap="round" transform="translate(40.28131103515625 328.4140930175781) rotate(0 73 60)"><path d="M19.87 18.6 C19.87 18.6, 19.87 18.6, 19.87 18.6 M19.87 18.6 C19.87 18.6, 19.87 18.6, 19.87 18.6 M4.52 42.35 C13.65 34.02, 22.09 22.12, 30.11 12.92 M4.52 42.35 C13.62 31.81, 22.46 21.32, 30.11 12.92 M4.26 48.75 C18.53 32.58, 30.92 16.78, 39.69 8 M4.26 48.75 C12.04 39.33, 21.56 29.36, 39.69 8 M3.34 55.9 C14.37 43.76, 22.81 30.2, 47.3 5.34 M3.34 55.9 C16.42 40.96, 30.15 25.43, 47.3 5.34 M2.42 63.06 C16.66 44.87, 31.09 31.53, 53.6 4.19 M2.42 63.06 C16.13 46.66, 30 31.65, 53.6 4.19 M2.16 69.45 C23.27 45.21, 41.62 21.96, 59.24 3.8 M2.16 69.45 C18.03 52.31, 33.68 35.09, 59.24 3.8 M3.87 73.59 C24.62 47.79, 49.99 22.23, 65.54 2.65 M3.87 73.59 C18.11 57.65, 31.38 42.18, 65.54 2.65 M5.58 77.72 C23.89 58.11, 38.82 40.35, 71.18 2.25 M5.58 77.72 C29.58 49.13, 54.68 21.4, 71.18 2.25 M7.28 81.86 C29.94 50.59, 55.43 24.84, 77.48 1.1 M7.28 81.86 C28.45 59.36, 47.17 37.15, 77.48 1.1 M9.64 85.23 C24.31 69.38, 42.58 50.63, 81.81 2.22 M9.64 85.23 C35.21 57.53, 59.7 28.01, 81.81 2.22 M11.35 89.37 C39.21 57.15, 67.26 25.75, 86.14 3.33 M11.35 89.37 C30 68.09, 48.16 46.27, 86.14 3.33 M13.06 93.5 C38.07 66.99, 61.56 37.33, 90.47 4.45 M13.06 93.5 C31.12 73.04, 49.4 51.39, 90.47 4.45 M16.08 96.13 C40.03 68.15, 63.26 45.26, 94.8 5.56 M16.08 96.13 C42.69 65.4, 69.71 34.95, 94.8 5.56 M19.75 98 C45.01 69.24, 65.63 44.03, 99.13 6.68 M19.75 98 C44.71 70.15, 71.12 40.56, 99.13 6.68 M22.77 100.62 C44.43 75.95, 66.4 51.97, 103.47 7.79 M22.77 100.62 C41.68 79.41, 59.4 58.45, 103.47 7.79 M25.79 103.24 C58.67 68.41, 89.31 32.5, 107.14 9.66 M25.79 103.24 C58.25 67.09, 90.31 30.4, 107.14 9.66 M28.81 105.87 C58.99 69.86, 91.84 30, 111.47 10.78 M28.81 105.87 C58.33 71.21, 87.27 39.4, 111.47 10.78 M32.48 107.74 C53.98 84.35, 74.79 59.93, 115.15 12.64 M32.48 107.74 C52.93 84.47, 74.58 59.08, 115.15 12.64 M35.5 110.36 C52.9 90.52, 73.79 69.34, 118.17 15.27 M35.5 110.36 C52.38 88.84, 70.11 68.49, 118.17 15.27 M38.52 112.99 C68.74 77.15, 103.96 41.03, 121.18 17.89 M38.52 112.99 C60.26 88.58, 81.28 64.57, 121.18 17.89 M42.85 114.1 C66.19 86.94, 87.97 61.69, 124.86 19.76 M42.85 114.1 C68.89 84.64, 95.01 53.64, 124.86 19.76 M47.18 115.22 C78.1 77.97, 109.35 43.4, 127.88 22.39 M47.18 115.22 C76.21 82.91, 105.61 49.36, 127.88 22.39 M51.51 116.33 C74.5 88.45, 98.5 63.63, 131.55 24.26 M51.51 116.33 C83.33 81.48, 114.95 44.95, 131.55 24.26 M55.84 117.45 C78.25 91.11, 98.46 68.54, 134.57 26.88 M55.84 117.45 C71.54 97.09, 88.41 78.48, 134.57 26.88 M60.18 118.56 C74.76 101.87, 91.3 82.77, 136.28 31.01 M60.18 118.56 C88.33 86.3, 117.14 53.39, 136.28 31.01 M64.51 119.68 C86.43 91.54, 112.68 64.55, 137.99 35.15 M64.51 119.68 C87.8 90.81, 113.7 63.01, 137.99 35.15 M69.49 120.04 C98.07 88.67, 123.97 54.56, 140.35 38.53 M69.49 120.04 C88.14 98.35, 106.15 77.35, 140.35 38.53 M75.14 119.64 C94.41 101.01, 110.15 78.78, 142.05 42.66 M75.14 119.64 C97.34 95.61, 118.91 69.47, 142.05 42.66 M81.44 118.49 C103.17 94.51, 124.65 65.43, 143.76 46.79 M81.44 118.49 C106.26 90.59, 130.08 61.12, 143.76 46.79 M87.08 118.1 C107.1 97.42, 125.69 77.74, 145.47 50.93 M87.08 118.1 C100.45 101.21, 113.92 84.98, 145.47 50.93 M92.72 117.7 C110.21 98.51, 126.1 80.21, 147.83 54.31 M92.72 117.7 C104.25 103.77, 117.3 89.62, 147.83 54.31 M99.68 115.8 C112.79 100.5, 125.95 85.25, 147.57 60.7 M99.68 115.8 C111.02 104.28, 120.55 92.33, 147.57 60.7 M109.26 110.88 C123.19 95.19, 134.84 83.19, 146.65 67.86 M109.26 110.88 C122.54 95.48, 136.62 78.94, 146.65 67.86 M118.84 105.95 C125.05 98.15, 133.04 88.94, 143.11 78.03 M118.84 105.95 C124.4 98.8, 130.84 93.28, 143.11 78.03" stroke="#fa5252" stroke-width="0.5" fill="none"></path><path d="M79.69 -0.2 C89.54 -0.42, 100.22 4.2, 109.34 8.63 C118.45 13.07, 128.32 19.19, 134.37 26.43 C140.43 33.66, 144.23 43.46, 145.66 52.05 C147.08 60.65, 146.34 69.68, 142.93 78 C139.51 86.31, 132.42 95.7, 125.17 101.92 C117.92 108.14, 108.94 112.47, 99.42 115.32 C89.89 118.16, 78.5 119.66, 68 118.97 C57.5 118.28, 45.76 115.59, 36.42 111.17 C27.08 106.75, 17.8 99.5, 11.96 92.45 C6.13 85.39, 2.73 77.27, 1.41 68.82 C0.08 60.36, 0.92 50.09, 4 41.71 C7.09 33.33, 12.88 24.77, 19.93 18.54 C26.97 12.3, 35.95 7.3, 46.27 4.28 C56.58 1.26, 75.33 0.9, 81.81 0.42 C88.29 -0.05, 85.34 0.53, 85.14 1.41 M64.87 1.52 C74.9 0, 86.38 1.9, 96.3 4.61 C106.23 7.32, 117.05 12.16, 124.43 17.78 C131.81 23.41, 137.15 30.57, 140.6 38.38 C144.04 46.18, 145.74 55.7, 145.07 64.62 C144.41 73.54, 142.12 84.23, 136.61 91.9 C131.1 99.57, 121.19 105.85, 112.02 110.64 C102.85 115.43, 91.99 119.63, 81.6 120.65 C71.22 121.66, 59.41 119.77, 49.71 116.73 C40.01 113.69, 30.92 108.42, 23.39 102.42 C15.86 96.41, 8.16 88.63, 4.54 80.71 C0.92 72.79, 0.65 63.75, 1.67 54.88 C2.69 46, 5.37 35.01, 10.67 27.46 C15.97 19.9, 24.76 13.84, 33.47 9.56 C42.17 5.27, 57.76 2.98, 62.9 1.73 C68.03 0.49, 63.83 1.43, 64.29 2.07" stroke="#1971c2" stroke-width="1" fill="none"></path></g><g transform="translate(77.75255812279607 350.9876861463853) rotate(0 35.40995788574219 37.5)"><text x="35.40995788574219" y="0" font-family="Virgil, Segoe UI Emoji" font-size="20px" fill="#1971c2" text-anchor="middle" style="white-space: pre;" direction="ltr" dominant-baseline="text-before-edge">Código </text><text x="35.40995788574219" y="25" font-family="Virgil, Segoe UI Emoji" font-size="20px" fill="#1971c2" text-anchor="middle" style="white-space: pre;" direction="ltr" dominant-baseline="text-before-edge">com</text><text x="35.40995788574219" y="50" font-family="Virgil, Segoe UI Emoji" font-size="20px" fill="#1971c2" text-anchor="middle" style="white-space: pre;" direction="ltr" dominant-baseline="text-before-edge">GPL</text></g><g stroke-linecap="round" transform="translate(51.979248046875 595.2708587646484) rotate(0 72.5 60)"><path d="M18.34 19.92 C18.34 19.92, 18.34 19.92, 18.34 19.92 M18.34 19.92 C18.34 19.92, 18.34 19.92, 18.34 19.92 M4.95 41.41 C10.29 36.52, 16.22 27.9, 28.57 14.24 M4.95 41.41 C13.9 32.33, 21.58 23.26, 28.57 14.24 M4.69 47.81 C12.14 38.12, 18.28 31.19, 38.81 8.56 M4.69 47.81 C15.43 36.71, 25.44 23.28, 38.81 8.56 M4.43 54.2 C21.03 36.06, 35.94 18.35, 45.76 6.66 M4.43 54.2 C18.06 39.41, 30.72 23.86, 45.76 6.66 M4.17 60.6 C15.98 44.39, 28.82 31.25, 52.06 5.51 M4.17 60.6 C13.97 49.42, 22.96 38.08, 52.06 5.51 M3.91 67 C25.73 40.69, 46.86 16, 58.36 4.36 M3.91 67 C22.64 44.96, 40.25 23.29, 58.36 4.36 M2.99 74.15 C28.28 46.53, 49.61 19.53, 64.66 3.21 M2.99 74.15 C17.52 58.17, 29.83 43.02, 64.66 3.21 M5.35 77.53 C24.81 54.33, 45.56 34.06, 70.96 2.06 M5.35 77.53 C25.17 55.92, 43.57 34.93, 70.96 2.06 M7.06 81.66 C25.05 57.2, 47.43 38.24, 76.6 1.66 M7.06 81.66 C32.74 53.44, 57.45 22.89, 76.6 1.66 M9.42 85.04 C31.19 64.26, 50.76 37.3, 80.93 2.78 M9.42 85.04 C37 52.6, 64.85 21.73, 80.93 2.78 M11.13 89.18 C36.2 58.37, 59.74 30.61, 85.27 3.89 M11.13 89.18 C26.34 71.29, 41.54 54.76, 85.27 3.89 M13.49 92.56 C32.21 71.86, 47.76 50.6, 89.6 5.01 M13.49 92.56 C37.14 65.32, 59.82 38.31, 89.6 5.01 M15.2 96.69 C30.19 79.88, 48.46 57.22, 94.58 5.37 M15.2 96.69 C32.39 76.59, 49.03 57.37, 94.58 5.37 M18.87 98.56 C39.18 75.89, 57.78 54.38, 98.91 6.48 M18.87 98.56 C35.55 77.96, 51.94 58.9, 98.91 6.48 M21.89 101.18 C47.16 70.73, 72.37 40.5, 103.24 7.6 M21.89 101.18 C52.69 65.64, 85.5 28.43, 103.24 7.6 M25.57 103.05 C54.11 68.53, 80.86 39.36, 108.23 7.96 M25.57 103.05 C51.88 71.87, 77.19 41.73, 108.23 7.96 M28.59 105.68 C58.53 73.66, 88.21 38.36, 111.25 10.58 M28.59 105.68 C50.46 81.77, 70.93 58.25, 111.25 10.58 M32.26 107.55 C58.26 76.12, 85.94 47.42, 114.27 13.21 M32.26 107.55 C57.38 77.18, 84.06 48.79, 114.27 13.21 M35.28 110.17 C61.31 81.2, 87.97 48.89, 117.94 15.08 M35.28 110.17 C56.4 86.31, 77.38 62.8, 117.94 15.08 M38.96 112.04 C65.62 83.4, 88.57 52.86, 120.96 17.7 M38.96 112.04 C68.58 77.25, 98.47 43.88, 120.96 17.7 M41.97 114.66 C69.04 87.61, 92.53 58.74, 123.98 20.33 M41.97 114.66 C67.01 85.18, 92.6 55.13, 123.98 20.33 M46.31 115.78 C63.17 97.82, 78.8 77.85, 127.66 22.19 M46.31 115.78 C69.09 89.71, 93.5 62.57, 127.66 22.19 M50.64 116.89 C79.15 85.24, 105.35 54.54, 130.68 24.82 M50.64 116.89 C80.13 84.54, 107.1 53.62, 130.68 24.82 M54.97 118.01 C75.34 93, 96.01 71.11, 133.69 27.44 M54.97 118.01 C86.58 83.02, 116.96 47.55, 133.69 27.44 M59.3 119.12 C84.85 89.75, 109.17 60.56, 136.06 30.82 M59.3 119.12 C84.69 90.52, 111.26 58.88, 136.06 30.82 M63.63 120.24 C84.27 97, 108.18 69.73, 137.76 34.96 M63.63 120.24 C84.06 97.16, 104.68 74.39, 137.76 34.96 M67.3 122.11 C89.23 97.51, 112.34 72.04, 139.47 39.09 M67.3 122.11 C83.28 102.62, 100.11 84.07, 139.47 39.09 M71.64 123.22 C89.72 104.21, 106.12 86.36, 141.18 43.22 M71.64 123.22 C94.21 96.58, 117.25 70.29, 141.18 43.22 M77.93 122.07 C100.07 96.59, 125.7 69.77, 143.54 46.6 M77.93 122.07 C91.39 105.17, 105.61 90.33, 143.54 46.6 M84.23 120.92 C98.33 104.98, 111.77 87.4, 145.25 50.74 M84.23 120.92 C103.83 98.96, 122.3 76.9, 145.25 50.74 M90.53 119.77 C108.9 97.82, 128.82 74.98, 144.99 57.13 M90.53 119.77 C106.41 101.7, 122.33 82.13, 144.99 57.13 M96.83 118.63 C110.05 102.12, 126.39 83.05, 144.07 64.29 M96.83 118.63 C115.68 97.77, 132.04 76.44, 144.07 64.29 M103.13 117.48 C110.89 107.66, 122.1 97.85, 143.81 70.68 M103.13 117.48 C117.6 102.45, 131.7 86.6, 143.81 70.68 M114.02 111.04 C126.52 97.29, 134.3 86.41, 143.55 77.08 M114.02 111.04 C120.75 103.64, 126.9 95.73, 143.55 77.08" stroke="#fa5252" stroke-width="0.5" fill="none"></path><path d="M44.15 5.55 C52.59 1.29, 63.84 -0.19, 74.24 0.01 C84.64 0.21, 97.02 2.57, 106.55 6.74 C116.07 10.91, 125.24 17.89, 131.36 25 C137.48 32.12, 141.49 41.05, 143.25 49.45 C145 57.85, 144.51 67.07, 141.89 75.4 C139.27 83.72, 134.38 92.82, 127.53 99.4 C120.68 105.99, 110.55 111.35, 100.81 114.89 C91.07 118.43, 79.33 121.12, 69.09 120.66 C58.85 120.2, 48.57 116.39, 39.37 112.13 C30.17 107.87, 20.31 101.78, 13.89 95.11 C7.48 88.44, 2.79 80.42, 0.89 72.13 C-1.02 63.84, -0.4 54.01, 2.47 45.36 C5.33 36.71, 9.72 27.25, 18.06 20.23 C26.4 13.21, 45.19 6.44, 52.51 3.25 C59.82 0.06, 61.75 0.21, 61.95 1.11 M54.59 2.12 C63.98 -0.8, 76.47 0.08, 86.92 1.82 C97.38 3.56, 108.95 7.68, 117.32 12.58 C125.69 17.47, 132.66 23.49, 137.14 31.19 C141.61 38.9, 143.96 49.84, 144.18 58.83 C144.39 67.82, 142.67 77.09, 138.43 85.16 C134.19 93.23, 126.9 101.95, 118.75 107.24 C110.6 112.54, 99.44 114.88, 89.53 116.93 C79.62 118.97, 69.47 120.9, 59.29 119.53 C49.12 118.15, 36.94 114.07, 28.49 108.68 C20.04 103.3, 13.21 94.98, 8.62 87.22 C4.03 79.46, 1.2 70.9, 0.94 62.12 C0.69 53.34, 2.82 42.36, 7.1 34.54 C11.37 26.72, 18.86 20.59, 26.62 15.19 C34.37 9.8, 48.8 3.97, 53.63 2.15 C58.45 0.33, 55.29 3.19, 55.56 4.3" stroke="#1971c2" stroke-width="1" fill="none"></path></g><g transform="translate(89.3040485251081 617.8444518934556) rotate(0 35.40995788574219 37.5)"><text x="35.40995788574219" y="0" font-family="Virgil, Segoe UI Emoji" font-size="20px" fill="#1971c2" text-anchor="middle" style="white-space: pre;" direction="ltr" dominant-baseline="text-before-edge">Código </text><text x="35.40995788574219" y="25" font-family="Virgil, Segoe UI Emoji" font-size="20px" fill="#1971c2" text-anchor="middle" style="white-space: pre;" direction="ltr" dominant-baseline="text-before-edge">com </text><text x="35.40995788574219" y="50" font-family="Virgil, Segoe UI Emoji" font-size="20px" fill="#1971c2" text-anchor="middle" style="white-space: pre;" direction="ltr" dominant-baseline="text-before-edge">LGPL</text></g><g stroke-linecap="round" transform="translate(752.9373779296875 619.2396240234375) rotate(0 47.5 34)"><path d="M7.31 15.63 C7.31 15.63, 7.31 15.63, 7.31 15.63 M7.31 15.63 C7.31 15.63, 7.31 15.63, 7.31 15.63 M3.11 26.56 C8.17 19.49, 11.74 14.53, 19.52 7.69 M3.11 26.56 C8.4 20.88, 13.91 14.15, 19.52 7.69 M0.88 35.22 C10.45 23.59, 22.43 10.49, 27.78 4.28 M0.88 35.22 C9.03 26.16, 18.53 15.97, 27.78 4.28 M2.59 39.35 C11.48 31.62, 20.06 22.27, 34.08 3.13 M2.59 39.35 C9.88 31.23, 15.67 24.69, 34.08 3.13 M4.3 43.49 C18.9 28.78, 32.58 9.56, 39.73 2.73 M4.3 43.49 C15.33 30.37, 27.42 17.03, 39.73 2.73 M6.66 46.87 C16.69 37.97, 22.07 26.61, 45.37 2.34 M6.66 46.87 C17.19 33.87, 27.48 22.89, 45.37 2.34 M8.37 51 C16.3 40.82, 28.75 26.69, 51.67 1.19 M8.37 51 C24.23 34.33, 37.57 17.24, 51.67 1.19 M10.73 54.38 C17.87 42.43, 29.66 32.09, 56 2.3 M10.73 54.38 C22.97 38.55, 36.93 24.55, 56 2.3 M13.75 57 C26.47 41.33, 41.89 21.27, 60.33 3.42 M13.75 57 C27.03 41.56, 41.74 23.97, 60.33 3.42 M17.42 58.87 C31.28 43.45, 47.42 27.72, 64.66 4.53 M17.42 58.87 C34.32 38.51, 51.18 18.95, 64.66 4.53 M21.1 60.74 C34.42 45.93, 46.42 29.01, 68.99 5.65 M21.1 60.74 C36.2 44.02, 50.63 26.3, 68.99 5.65 M24.12 63.37 C34.22 53.4, 43.31 40.28, 72.67 7.52 M24.12 63.37 C40.27 43.47, 56.56 25.63, 72.67 7.52 M27.79 65.24 C38.97 52.7, 49.68 37.63, 77 8.63 M27.79 65.24 C41.76 51.19, 54.71 36.25, 77 8.63 M30.81 67.86 C41.66 52.99, 54.44 37.46, 81.33 9.75 M30.81 67.86 C41.01 55.15, 53.96 42.08, 81.33 9.75 M35.8 68.22 C54.69 44.36, 72.31 25.87, 84.35 12.37 M35.8 68.22 C50.68 50.57, 65.87 31.76, 84.35 12.37 M40.79 68.58 C55.19 48.15, 75.48 31.89, 86.71 15.75 M40.79 68.58 C58.58 47.79, 77.41 26.36, 86.71 15.75 M45.77 68.94 C54.86 58.19, 65.65 43.99, 89.73 18.37 M45.77 68.94 C63.77 49.07, 80.94 28.99, 89.73 18.37 M50.76 69.3 C64.7 55.36, 75.48 41.78, 92.09 21.75 M50.76 69.3 C64.99 53.07, 80.67 36.17, 92.09 21.75 M56.4 68.91 C64.86 56.85, 76.71 48.48, 95.11 24.38 M56.4 68.91 C64.05 60.02, 73.43 48.4, 95.11 24.38 M64.01 66.25 C70.29 56.35, 81.89 47.45, 94.85 30.78 M64.01 66.25 C77.04 53.26, 88.17 38.82, 94.85 30.78 M70.97 64.34 C77.99 55.8, 81.42 49.01, 95.24 36.42 M70.97 64.34 C78.26 55.48, 86.89 46.97, 95.24 36.42" stroke="#fa5252" stroke-width="0.5" fill="none"></path><path d="M26.64 3.1 C33.75 0.18, 44.84 -0.82, 53.51 -0.11 C62.18 0.61, 72.05 3.52, 78.66 7.39 C85.28 11.25, 90.61 17.1, 93.18 23.1 C95.75 29.1, 96.54 37.25, 94.08 43.41 C91.61 49.56, 84.93 55.95, 78.38 60.02 C71.84 64.1, 63.06 66.93, 54.8 67.86 C46.55 68.78, 36.65 68.16, 28.87 65.57 C21.08 62.97, 12.92 57.49, 8.1 52.27 C3.29 47.05, 0.1 40.36, -0.03 34.25 C-0.16 28.14, 2.55 20.89, 7.34 15.6 C12.14 10.31, 24.74 4.53, 28.74 2.51 C32.74 0.48, 30.95 2.94, 31.36 3.44 M38.12 1.99 C46.08 0.24, 57.3 0.03, 65.17 2.12 C73.03 4.22, 80.32 9.53, 85.32 14.57 C90.32 19.6, 94.5 26.43, 95.17 32.32 C95.83 38.22, 93.49 44.79, 89.31 49.93 C85.13 55.07, 77.92 60.27, 70.07 63.19 C62.23 66.1, 51.1 68, 42.25 67.42 C33.41 66.84, 23.79 63.5, 17.01 59.71 C10.24 55.91, 3.99 50.34, 1.6 44.64 C-0.78 38.94, 0.6 31.6, 2.71 25.5 C4.82 19.39, 8.36 12.37, 14.26 8.04 C20.17 3.71, 33.94 0.49, 38.13 -0.49 C42.32 -1.47, 39.06 1.64, 39.39 2.18" stroke="#1971c2" stroke-width="1" fill="none"></path></g><g transform="translate(773.8698253545765 640.6979934630949) rotate(0 26.47998046875 12.5)"><text x="26.47998046875" y="0" font-family="Virgil, Segoe UI Emoji" font-size="20px" fill="#1971c2" text-anchor="middle" style="white-space: pre;" direction="ltr" dominant-baseline="text-before-edge">LGPL</text></g><g stroke-linecap="round" transform="translate(593.4061889648438 339.38287353515625) rotate(0 47.5 34)"><path d="M65.66 2.47 C73.33 4.44, 81.38 9.59, 86.36 14.67 C91.34 19.75, 95.34 26.61, 95.54 32.96 C95.74 39.31, 91.99 47.34, 87.55 52.76 C83.11 58.17, 76.59 63.1, 68.91 65.46 C61.23 67.81, 50.06 67.76, 41.47 66.89 C32.88 66.01, 23.91 63.89, 17.38 60.2 C10.84 56.52, 4.88 50.64, 2.27 44.79 C-0.35 38.93, -0.52 30.94, 1.71 25.06 C3.93 19.18, 9.38 13.63, 15.61 9.51 C21.85 5.38, 29.23 0.88, 39.1 0.29 C48.98 -0.3, 67.6 3.91, 74.86 5.95 C82.13 7.99, 83.03 12.06, 82.7 12.53 M30 1.9 C37.57 -0.79, 49.37 -0.57, 57.63 0.9 C65.9 2.36, 73.68 6.68, 79.6 10.71 C85.53 14.74, 90.97 19.52, 93.19 25.09 C95.42 30.65, 95.58 38.16, 92.93 44.1 C90.28 50.03, 84.04 56.88, 77.3 60.7 C70.57 64.52, 61.35 66.33, 52.53 67 C43.72 67.67, 32.22 67.18, 24.39 64.72 C16.57 62.25, 9.57 57.49, 5.58 52.21 C1.6 46.93, -0.26 39.57, 0.5 33.01 C1.26 26.45, 5.07 17.75, 10.14 12.84 C15.2 7.93, 27.58 5, 30.89 3.56 C34.2 2.12, 29.66 4.02, 29.99 4.19" stroke="#1971c2" stroke-width="1" fill="none"></path></g><g transform="translate(620.3286342535023 360.84124297481367) rotate(0 20.48998260498047 12.5)"><text x="20.48998260498047" y="0" font-family="Virgil, Segoe UI Emoji" font-size="20px" fill="#1971c2" text-anchor="middle" style="white-space: pre;" direction="ltr" dominant-baseline="text-before-edge">GPL</text></g><g stroke-linecap="round" transform="translate(596.8958129882812 467.2084045410156) rotate(0 47.5 34)"><path d="M32.43 2.54 C40.06 0.27, 51.32 0.44, 59.72 1.75 C68.11 3.06, 77.01 5.83, 82.8 10.39 C88.59 14.96, 93.18 22.93, 94.47 29.15 C95.77 35.37, 93.86 42.16, 90.58 47.69 C87.3 53.22, 81.74 58.81, 74.78 62.35 C67.83 65.89, 57.56 68.97, 48.86 68.92 C40.15 68.88, 29.76 65.43, 22.56 62.09 C15.35 58.75, 9.25 54.22, 5.64 48.89 C2.02 43.57, 0.01 36.3, 0.86 30.14 C1.71 23.98, 4.68 16.82, 10.74 11.9 C16.8 6.99, 32.13 2.56, 37.22 0.65 C42.31 -1.27, 40.92 -0.03, 41.25 0.41 M52.93 0.9 C61.13 0.71, 68.99 3.28, 75.79 6.77 C82.59 10.26, 90.7 15.73, 93.71 21.83 C96.72 27.94, 95.93 37, 93.87 43.38 C91.8 49.76, 87.55 55.93, 81.33 60.1 C75.1 64.28, 65.29 67.43, 56.53 68.43 C47.78 69.42, 36.68 68.75, 28.8 66.06 C20.93 63.37, 14.23 57.52, 9.28 52.28 C4.33 47.04, -0.45 40.32, -0.88 34.62 C-1.31 28.91, 2.29 23.14, 6.73 18.05 C11.16 12.96, 18.18 7.04, 25.74 4.07 C33.29 1.1, 47.71 0.71, 52.03 0.21 C56.35 -0.29, 51.72 0.53, 51.65 1.07" stroke="#1971c2" stroke-width="1" fill="none"></path></g><g transform="translate(617.258260718346 488.66677398067304) rotate(0 27.04998016357422 12.5)"><text x="27.04998016357422" y="0" font-family="Virgil, Segoe UI Emoji" font-size="20px" fill="#1971c2" text-anchor="middle" style="white-space: pre;" direction="ltr" dominant-baseline="text-before-edge">AGPL</text></g><g stroke-linecap="round" transform="translate(505.90618896484375 610.3828430175781) rotate(0 92 42.5)"><path d="M15.23 19.86 C15.23 19.86, 15.23 19.86, 15.23 19.86 M15.23 19.86 C15.23 19.86, 15.23 19.86, 15.23 19.86 M3.16 39.85 C11 30.09, 17.51 22.48, 24.15 15.7 M3.16 39.85 C7.95 34.67, 10.57 30.08, 24.15 15.7 M4.21 44.73 C11.63 35.32, 21.66 25.36, 33.73 10.77 M4.21 44.73 C13.65 32.92, 23.22 22.61, 33.73 10.77 M5.26 49.62 C15.27 37.84, 23.02 30.64, 42.66 6.6 M5.26 49.62 C12.88 40.37, 21.95 29.06, 42.66 6.6 M5 56.02 C22.35 35.77, 37.28 18.73, 47.64 6.96 M5 56.02 C19.24 39.08, 35.7 21.93, 47.64 6.96 M8.67 57.89 C23.36 40.03, 38.02 26.47, 53.29 6.57 M8.67 57.89 C20.16 43.15, 34.44 29.34, 53.29 6.57 M11.69 60.51 C25.85 43.01, 41.52 24.33, 58.93 6.18 M11.69 60.51 C26.5 42.99, 42.97 24.32, 58.93 6.18 M14.71 63.14 C26.54 52.35, 36.67 37.44, 65.23 5.03 M14.71 63.14 C33.08 42.81, 50.64 20.7, 65.23 5.03 M18.39 65.01 C37.27 47.44, 54.22 26.82, 70.87 4.63 M18.39 65.01 C31.34 48.51, 44.38 33.64, 70.87 4.63 M21.4 67.63 C33.08 51.94, 46.32 40.42, 76.51 4.24 M21.4 67.63 C41.2 45.97, 61.16 23.26, 76.51 4.24 M24.42 70.26 C47.34 42.86, 68.74 17.74, 84.12 1.58 M24.42 70.26 C36.38 57.11, 48.28 42.49, 84.12 1.58 M28.1 72.13 C47.39 47.26, 69.3 26.07, 89.11 1.94 M28.1 72.13 C46.98 49.73, 65.02 28.83, 89.11 1.94 M31.77 74 C49.06 53.2, 62.6 36, 94.1 2.3 M31.77 74 C51.4 51.19, 70.53 29.77, 94.1 2.3 M36.1 75.11 C54.13 55.19, 71.27 33.9, 99.74 1.9 M36.1 75.11 C57.94 49.77, 81.93 23.6, 99.74 1.9 M39.78 76.98 C55.48 57.22, 76.36 38.34, 104.73 2.26 M39.78 76.98 C55.16 59.86, 70.84 42.4, 104.73 2.26 M44.11 78.09 C64.19 55.89, 86.09 31.53, 109.72 2.62 M44.11 78.09 C68.37 49.18, 93.52 21.82, 109.72 2.62 M47.79 79.96 C65.3 60.12, 79.62 41.36, 114.7 2.98 M47.79 79.96 C61.75 63.98, 75.62 48.08, 114.7 2.98 M52.12 81.08 C75.55 56.63, 96.25 31.37, 119.69 3.34 M52.12 81.08 C75.44 56.29, 97.87 28.91, 119.69 3.34 M55.79 82.95 C72.42 62.24, 89.12 42.83, 124.68 3.7 M55.79 82.95 C73.27 63.29, 89.18 44.08, 124.68 3.7 M60.12 84.06 C84.2 53.35, 110.76 24.52, 129.01 4.82 M60.12 84.06 C85.81 55.17, 110.11 26.79, 129.01 4.82 M65.11 84.42 C78.83 68.43, 93.61 50.25, 133.34 5.93 M65.11 84.42 C87.67 57.71, 110.39 31.02, 133.34 5.93 M70.1 84.78 C91.87 58.38, 116.8 31.68, 137.01 7.8 M70.1 84.78 C88.49 64.73, 105.49 43.9, 137.01 7.8 M75.74 84.39 C93.98 63.27, 114.83 39.07, 141.34 8.92 M75.74 84.39 C88.11 70.23, 101.56 53.17, 141.34 8.92 M80.73 84.75 C103.04 59.59, 127.98 31.46, 145.68 10.03 M80.73 84.75 C93.36 69.61, 107.88 54.56, 145.68 10.03 M85.71 85.11 C107.79 59.04, 130.64 35.74, 150.01 11.15 M85.71 85.11 C99.06 68.93, 111.53 54.23, 150.01 11.15 M90.7 85.47 C109.99 63.42, 126.18 42.23, 154.34 12.26 M90.7 85.47 C106.47 67.96, 121.32 50.14, 154.34 12.26 M95.69 85.83 C111.92 67.92, 123.68 51.56, 158.67 13.38 M95.69 85.83 C120.95 57.39, 144.59 29.02, 158.67 13.38 M100.67 86.19 C115.49 70.77, 128.19 54.86, 162.34 15.25 M100.67 86.19 C123.69 59.91, 147.69 32.4, 162.34 15.25 M106.97 85.04 C126.8 64.76, 143.48 41.69, 165.36 17.87 M106.97 85.04 C122.12 68.56, 136.98 51.3, 165.36 17.87 M113.27 83.89 C129.8 63.34, 147.25 43.86, 168.38 20.5 M113.27 83.89 C128.74 65.34, 146.4 46.23, 168.38 20.5 M118.92 83.5 C138.3 60.95, 159.37 37.01, 171.4 23.12 M118.92 83.5 C129.5 69.96, 141.91 57.86, 171.4 23.12 M125.21 82.35 C135.55 69.14, 148.81 57.67, 174.42 25.74 M125.21 82.35 C136.44 67.18, 149.03 52.8, 174.42 25.74 M130.86 81.95 C145.77 66.88, 158.61 49.46, 177.44 28.37 M130.86 81.95 C144.52 67.14, 157.26 51.41, 177.44 28.37 M137.16 80.8 C148.27 66.39, 160.47 52.56, 180.46 30.99 M137.16 80.8 C153.93 61.04, 170.53 42.81, 180.46 30.99 M142.14 81.16 C154.08 66.39, 167.72 51.94, 181.51 35.88 M142.14 81.16 C150.48 72.78, 158.45 62.02, 181.51 35.88 M151.07 77 C157.61 69.62, 165.53 60.48, 182.56 40.77 M151.07 77 C161.69 64.32, 174.87 50.32, 182.56 40.77 M159.99 72.83 C167.39 66.7, 170.22 58.79, 182.95 46.41 M159.99 72.83 C168.95 62.98, 176.11 54.57, 182.95 46.41" stroke="#7950f2" stroke-width="0.5" fill="none"></path><path d="M123.34 2.66 C135.59 3.99, 149.22 8.36, 158.67 12.92 C168.13 17.48, 176.05 24.03, 180.05 30.02 C184.06 36.01, 184.7 42.88, 182.72 48.84 C180.74 54.81, 175.43 60.75, 168.19 65.83 C160.96 70.9, 150.74 76.14, 139.31 79.3 C127.88 82.45, 112.98 84.14, 99.59 84.76 C86.21 85.38, 71.22 85.31, 58.99 83.01 C46.77 80.71, 35.37 75.6, 26.24 70.95 C17.11 66.3, 8.51 60.63, 4.2 55.09 C-0.1 49.56, -1.42 43.6, 0.41 37.74 C2.24 31.88, 7.69 25.34, 15.17 19.94 C22.64 14.54, 33.88 8.48, 45.28 5.34 C56.69 2.2, 69.23 1.42, 83.57 1.11 C97.91 0.79, 122.42 2.42, 131.33 3.44 C140.23 4.45, 137.7 6.42, 137 7.2 M110.47 1.51 C123.31 2.09, 138.15 5.74, 148.75 9.13 C159.35 12.52, 168.34 16.37, 174.08 21.83 C179.82 27.3, 182.92 35.48, 183.18 41.94 C183.44 48.41, 181.05 54.87, 175.63 60.62 C170.2 66.37, 160.97 72.8, 150.64 76.45 C140.31 80.1, 126.31 81.11, 113.66 82.51 C101.01 83.91, 87.67 85.74, 74.74 84.84 C61.81 83.94, 46.74 81, 36.06 77.13 C25.39 73.25, 16.53 67.1, 10.68 61.58 C4.82 56.06, 1.24 50.26, 0.95 44.01 C0.65 37.76, 3.44 29.58, 8.9 24.08 C14.36 18.58, 23.8 14.74, 33.73 10.99 C43.66 7.23, 55.62 3.05, 68.5 1.57 C81.38 0.08, 104.27 1.87, 111 2.07 C117.73 2.27, 109.19 2.3, 108.88 2.75" stroke="#1971c2" stroke-width="1" fill="none"></path></g><g transform="translate(541.3924346757595 627.8308048171498) rotate(0 56.459930419921875 25)"><text x="56.459930419921875" y="0" font-family="Virgil, Segoe UI Emoji" font-size="20px" fill="#1971c2" text-anchor="middle" style="white-space: pre;" direction="ltr" dominant-baseline="text-before-edge">Código sob </text><text x="56.459930419921875" y="25" font-family="Virgil, Segoe UI Emoji" font-size="20px" fill="#1971c2" text-anchor="middle" style="white-space: pre;" direction="ltr" dominant-baseline="text-before-edge">sua licença</text></g><g stroke-linecap="round" transform="translate(10 158.78649139404297) rotate(0 92 78.5)"><path d="M80.75 1.47 C92.28 -0.68, 107.81 1.51, 119.76 4.56 C131.72 7.62, 143.2 13.07, 152.49 19.82 C161.77 26.56, 170.35 35.48, 175.47 45.02 C180.58 54.56, 183.15 66.19, 183.17 77.05 C183.18 87.91, 180.37 100.42, 175.54 110.21 C170.72 119.99, 163.28 128.71, 154.22 135.78 C145.16 142.85, 132.88 149.16, 121.16 152.61 C109.44 156.05, 96.19 157.53, 83.91 156.45 C71.64 155.36, 58.62 151.15, 47.53 146.07 C36.43 141, 24.79 134.38, 17.33 125.99 C9.86 117.6, 5.24 106.09, 2.74 95.72 C0.24 85.35, 0.07 74.34, 2.31 63.77 C4.56 53.21, 8.91 41.15, 16.18 32.33 C23.46 23.52, 34.21 16.18, 45.94 10.88 C57.66 5.58, 78.97 2.06, 86.55 0.54 C94.12 -0.97, 91.45 0.44, 91.39 1.79 M133.44 8.5 C144.25 12.1, 154.3 20.14, 162.2 28.51 C170.11 36.89, 177.38 48.2, 180.85 58.76 C184.32 69.32, 185.14 81.63, 183.04 91.86 C180.93 102.1, 174.96 111.46, 168.23 120.16 C161.5 128.86, 152.98 138.29, 142.66 144.05 C132.34 149.82, 118.75 153.03, 106.31 154.75 C93.87 156.46, 79.94 156.63, 68.02 154.35 C56.09 152.06, 44.18 147.85, 34.75 141.02 C25.31 134.19, 17.33 123.24, 11.4 113.36 C5.46 103.48, 0.27 92.14, -0.87 81.75 C-2.01 71.36, -0.06 60.92, 4.56 51.01 C9.17 41.1, 17.81 29.87, 26.83 22.28 C35.86 14.69, 47.25 9.14, 58.71 5.46 C70.17 1.77, 82.98 -0.36, 95.56 0.18 C108.15 0.72, 127.84 6.99, 134.23 8.71 C140.62 10.43, 134.8 9.16, 133.9 10.5" stroke="#1971c2" stroke-width="1" fill="none"></path></g><g transform="translate(44.2162414384548 187.278609070899) rotate(0 57.72993469238281 50)"><text x="57.72993469238281" y="0" font-family="Virgil, Segoe UI Emoji" font-size="20px" fill="#1971c2" text-anchor="middle" style="white-space: pre;" direction="ltr" dominant-baseline="text-before-edge">Códigos com</text><text x="57.72993469238281" y="25" font-family="Virgil, Segoe UI Emoji" font-size="20px" fill="#1971c2" text-anchor="middle" style="white-space: pre;" direction="ltr" dominant-baseline="text-before-edge">Mit</text><text x="57.72993469238281" y="50" font-family="Virgil, Segoe UI Emoji" font-size="20px" fill="#1971c2" text-anchor="middle" style="white-space: pre;" direction="ltr" dominant-baseline="text-before-edge">BSD</text><text x="57.72993469238281" y="75" font-family="Virgil, Segoe UI Emoji" font-size="20px" fill="#1971c2" text-anchor="middle" style="white-space: pre;" direction="ltr" dominant-baseline="text-before-edge">Apace</text></g><g stroke-linecap="round" transform="translate(247.9688720703125 603.5964126586914) rotate(0 82 52.5)"><path d="M102.7 1.49 C114.15 2.65, 126.51 8.04, 135.46 13.08 C144.4 18.12, 151.71 24.92, 156.35 31.72 C161 38.53, 163.54 46.37, 163.3 53.9 C163.05 61.43, 160.33 70.16, 154.88 76.9 C149.42 83.65, 140.17 89.73, 130.56 94.36 C120.96 98.99, 108.63 103.34, 97.24 104.68 C85.85 106.02, 73.63 104.49, 62.22 102.38 C50.81 100.27, 38.04 96.62, 28.8 92.04 C19.56 87.45, 11.57 81.56, 6.78 74.86 C1.99 68.16, -0.43 59.72, 0.06 51.86 C0.55 44.01, 4.29 34.46, 9.71 27.73 C15.14 21.01, 23.28 16.08, 32.6 11.51 C41.92 6.94, 51.78 1.32, 65.63 0.31 C79.48 -0.7, 105.3 3.72, 115.71 5.45 C126.11 7.17, 128.42 9.96, 128.05 10.68 M89.23 0.66 C100.54 0.08, 113.17 1.95, 123.11 5.73 C133.05 9.52, 142.27 16.79, 148.88 23.38 C155.5 29.96, 160.98 37.59, 162.81 45.25 C164.64 52.9, 163.48 62.34, 159.87 69.3 C156.25 76.25, 148.92 81.52, 141.11 86.97 C133.3 92.43, 123.93 98.91, 113.01 102.02 C102.09 105.12, 87.48 106.32, 75.58 105.6 C63.69 104.87, 51.7 101.52, 41.64 97.68 C31.59 93.85, 21.9 88.95, 15.24 82.57 C8.59 76.2, 3.5 66.86, 1.71 59.45 C-0.08 52.05, 1.28 45.2, 4.51 38.14 C7.73 31.08, 13.01 22.64, 21.04 17.1 C29.08 11.56, 41.73 7.54, 52.73 4.89 C63.73 2.25, 81.07 1.87, 87.05 1.22 C93.03 0.57, 88.33 0.27, 88.61 0.99" stroke="#1971c2" stroke-width="1" fill="none"></path></g><g transform="translate(277.3461776585234 643.4733066463976) rotate(0 52.63993835449219 12.5)"><text x="52.63993835449219" y="0" font-family="Virgil, Segoe UI Emoji" font-size="20px" fill="#1971c2" text-anchor="middle" style="white-space: pre;" direction="ltr" dominant-baseline="text-before-edge">Seu Código</text></g><g stroke-linecap="round" transform="translate(250.6251220703125 462.25525665283203) rotate(0 82 52.5)"><path d="M89.35 -0.21 C100.63 -0.03, 114.44 4.62, 124.82 8.59 C135.19 12.56, 145.05 17.49, 151.61 23.6 C158.17 29.71, 162.88 37.68, 164.19 45.24 C165.5 52.8, 163.45 61.55, 159.47 68.96 C155.48 76.37, 148.34 84.29, 140.26 89.68 C132.19 95.07, 122.07 98.73, 111.03 101.29 C100 103.85, 85.87 105.82, 74.04 105.04 C62.22 104.27, 50.1 100.49, 40.07 96.63 C30.05 92.77, 20.44 88.15, 13.91 81.9 C7.38 75.66, 2.42 66.8, 0.9 59.17 C-0.62 51.55, 1.07 43.4, 4.79 36.17 C8.5 28.93, 14.89 21.34, 23.19 15.76 C31.5 10.17, 42.18 4.94, 54.61 2.65 C67.05 0.36, 89.17 1.75, 97.8 2.03 C106.43 2.32, 106.52 3.51, 106.4 4.34 M55.71 1.4 C66.32 -1.57, 82.12 -0.89, 94.26 0.53 C106.39 1.96, 118.94 5.5, 128.52 9.95 C138.09 14.4, 145.7 20.85, 151.7 27.24 C157.71 33.63, 163.55 41.04, 164.55 48.3 C165.55 55.56, 162.28 63.78, 157.69 70.83 C153.1 77.87, 145.33 85.36, 137 90.58 C128.68 95.8, 118.63 99.9, 107.75 102.14 C96.87 104.37, 83.45 105.03, 71.71 104 C59.98 102.97, 47.6 99.88, 37.36 95.96 C27.12 92.04, 16.46 87.09, 10.26 80.48 C4.07 73.86, 0.91 64.02, 0.2 56.27 C-0.51 48.52, 1.61 41, 6.02 33.97 C10.43 26.95, 18.29 19.34, 26.64 14.12 C34.99 8.9, 51.06 4.35, 56.11 2.63 C61.15 0.91, 56.52 2.9, 56.92 3.82" stroke="#1971c2" stroke-width="1" fill="none"></path></g><g transform="translate(280.0024276585234 502.13215064053827) rotate(0 52.63993835449219 12.5)"><text x="52.63993835449219" y="0" font-family="Virgil, Segoe UI Emoji" font-size="20px" fill="#1971c2" text-anchor="middle" style="white-space: pre;" direction="ltr" dominant-baseline="text-before-edge">Seu Código</text></g><g stroke-linecap="round" transform="translate(247.447998046875 325.0807876586914) rotate(0 82 52.5)"><path d="M56.98 2.78 C67.54 0.04, 82.17 0.25, 94.11 1.35 C106.05 2.45, 118.69 5.12, 128.6 9.38 C138.52 13.63, 147.78 20.42, 153.6 26.86 C159.43 33.29, 162.64 40.72, 163.56 47.99 C164.48 55.26, 163.3 63.48, 159.1 70.46 C154.91 77.45, 147.11 84.41, 138.39 89.89 C129.67 95.37, 118.03 101.04, 106.8 103.33 C95.58 105.62, 82.87 104.77, 71.04 103.64 C59.21 102.51, 45.77 100.77, 35.81 96.54 C25.86 92.3, 17.31 85.04, 11.3 78.25 C5.29 71.46, 0.73 63.18, -0.26 55.78 C-1.26 48.39, 0.99 40.73, 5.33 33.87 C9.66 27.01, 15.47 20.16, 25.73 14.65 C35.99 9.15, 58.42 2.97, 66.88 0.85 C75.34 -1.28, 76.1 1.09, 76.51 1.9 M92.48 -0.48 C103.94 -0.11, 117.27 4.55, 127.11 9.13 C136.95 13.71, 145.65 20.37, 151.51 27.01 C157.37 33.64, 161.16 41.65, 162.26 48.93 C163.37 56.22, 162.11 63.79, 158.13 70.7 C154.15 77.61, 146.73 84.98, 138.37 90.37 C130 95.76, 119.06 100.44, 107.94 103.04 C96.81 105.63, 83.24 107.14, 71.59 105.93 C59.95 104.71, 48.25 100.22, 38.06 95.76 C27.88 91.3, 16.92 85.6, 10.5 79.18 C4.07 72.77, 0.41 64.59, -0.48 57.28 C-1.38 49.96, 0.94 42.24, 5.13 35.3 C9.33 28.36, 16.05 21.3, 24.68 15.62 C33.31 9.95, 45.5 3.71, 56.91 1.23 C68.33 -1.24, 86.97 0.77, 93.18 0.78 C99.39 0.8, 94.18 0.6, 94.17 1.31" stroke="#1971c2" stroke-width="1" fill="none"></path></g><g transform="translate(276.8253036350859 364.95768164639765) rotate(0 52.63993835449219 12.5)"><text x="52.63993835449219" y="0" font-family="Virgil, Segoe UI Emoji" font-size="20px" fill="#1971c2" text-anchor="middle" style="white-space: pre;" direction="ltr" dominant-baseline="text-before-edge">Seu Código</text></g><g stroke-linecap="round" transform="translate(249.27093505859375 180.40630340576172) rotate(0 82 52.5)"><path d="M82.23 0.09 C93.72 -0.82, 107.51 2.04, 118.16 5.18 C128.82 8.33, 138.73 13.02, 146.15 18.94 C153.56 24.86, 160.02 33.26, 162.66 40.73 C165.31 48.2, 164.65 56.46, 162.02 63.74 C159.39 71.02, 154.35 78.55, 146.88 84.4 C139.4 90.26, 128.08 95.53, 117.17 98.89 C106.25 102.25, 93.18 104.36, 81.37 104.55 C69.56 104.74, 56.93 103.11, 46.32 100.05 C35.71 96.99, 25.16 92.32, 17.69 86.21 C10.23 80.1, 4.31 70.83, 1.53 63.37 C-1.24 55.9, -1.51 48.54, 1.04 41.41 C3.59 34.27, 9.2 26.62, 16.84 20.54 C24.48 14.47, 34.65 8.41, 46.89 4.98 C59.13 1.55, 81.86 0.55, 90.29 -0.05 C98.71 -0.66, 97.54 0.53, 97.45 1.36 M47.91 5.95 C57.48 2.23, 70.02 1.72, 81.65 1.42 C93.28 1.12, 106.72 1.17, 117.7 4.14 C128.68 7.11, 140.11 12.97, 147.53 19.24 C154.95 25.52, 159.56 34.21, 162.19 41.79 C164.83 49.38, 166.16 57.44, 163.33 64.75 C160.5 72.05, 153 79.79, 145.21 85.62 C137.42 91.46, 127.21 96.7, 116.58 99.77 C105.96 102.84, 93.41 104.22, 81.47 104.06 C69.53 103.9, 55.67 102.01, 44.94 98.82 C34.21 95.62, 23.99 90.56, 17.09 84.9 C10.19 79.23, 6.27 71.95, 3.54 64.81 C0.82 57.66, -1.53 49.74, 0.74 42.03 C3.01 34.32, 9.66 24.58, 17.17 18.54 C24.68 12.49, 41.05 7.63, 45.81 5.73 C50.56 3.84, 45.13 6.49, 45.71 7.15" stroke="#1971c2" stroke-width="1" fill="none"></path></g><g transform="translate(278.64824064680465 220.28319739346796) rotate(0 52.63993835449219 12.5)"><text x="52.63993835449219" y="0" font-family="Virgil, Segoe UI Emoji" font-size="20px" fill="#1971c2" text-anchor="middle" style="white-space: pre;" direction="ltr" dominant-baseline="text-before-edge">Seu Código</text></g><g transform="translate(210.38543701171875 213.5130112965723) rotate(0 13.408210754394531 26.822923978178682)"><text x="0" y="0" font-family="Virgil, Segoe UI Emoji" font-size="42.91667836508589px" fill="#1971c2" text-anchor="start" style="white-space: pre;" direction="ltr" dominant-baseline="text-before-edge">+</text></g><g transform="translate(207.20849609375 357.17188580829105) rotate(0 13.408210754394531 26.822923978178686)"><text x="0" y="0" font-family="Virgil, Segoe UI Emoji" font-size="42.91667836508589px" fill="#1971c2" text-anchor="start" style="white-space: pre;" direction="ltr" dominant-baseline="text-before-edge">+</text></g><g transform="translate(212.20843505859375 486.3385270436426) rotate(0 13.408210754394531 26.82292397817868)"><text x="0" y="0" font-family="Virgil, Segoe UI Emoji" font-size="42.91667836508589px" fill="#1971c2" text-anchor="start" style="white-space: pre;" direction="ltr" dominant-baseline="text-before-edge">+</text></g><g transform="translate(704.3439331054688 622.3151048024317) rotate(0 13.408210754394531 26.822923978178693)"><text x="0" y="0" font-family="Virgil, Segoe UI Emoji" font-size="42.91667836508589px" fill="#1971c2" text-anchor="start" style="white-space: pre;" direction="ltr" dominant-baseline="text-before-edge">+</text></g><g transform="translate(209.0313720703125 626.6640885670802) rotate(0 13.408210754394531 26.822923978178693)"><text x="0" y="0" font-family="Virgil, Segoe UI Emoji" font-size="42.91667836508589px" fill="#1971c2" text-anchor="start" style="white-space: pre;" direction="ltr" dominant-baseline="text-before-edge">+</text></g><g transform="translate(434.0312194824219 202.49740155536136) rotate(0 13.236587524414062 26.822923978178682)"><text x="0" y="0" font-family="Virgil, Segoe UI Emoji" font-size="42.91667836508589px" fill="#1971c2" text-anchor="start" style="white-space: pre;" direction="ltr" dominant-baseline="text-before-edge">=</text></g><g transform="translate(433.0416564941406 347.1718552907129) rotate(0 13.236587524414062 26.822923978178686)"><text x="0" y="0" font-family="Virgil, Segoe UI Emoji" font-size="42.91667836508589px" fill="#1971c2" text-anchor="start" style="white-space: pre;" direction="ltr" dominant-baseline="text-before-edge">=</text></g><g transform="translate(434.1875305175781 481.15626080829105) rotate(0 13.236587524414062 26.82292397817868)"><text x="0" y="0" font-family="Virgil, Segoe UI Emoji" font-size="42.91667836508589px" fill="#1971c2" text-anchor="start" style="white-space: pre;" direction="ltr" dominant-baseline="text-before-edge">=</text></g><g transform="translate(430.1770935058594 625.648417790713) rotate(0 13.236587524414062 26.822923978178693)"><text x="0" y="0" font-family="Virgil, Segoe UI Emoji" font-size="42.91667836508589px" fill="#1971c2" text-anchor="start" style="white-space: pre;" direction="ltr" dominant-baseline="text-before-edge">=</text></g><g stroke-linecap="round" transform="translate(478.5104064941406 172.3021011352539) rotate(0 161 54)"><path d="M2.25 47.01 C2.25 47.01, 2.25 47.01, 2.25 47.01 M2.25 47.01 C2.25 47.01, 2.25 47.01, 2.25 47.01 M2.65 52.65 C9.52 45.96, 15.02 38.64, 25.61 26.24 M2.65 52.65 C8.2 45.5, 14.96 39.35, 25.61 26.24 M3.04 58.3 C11.92 45.71, 25.13 33.69, 33.88 22.82 M3.04 58.3 C13.82 46.41, 23.32 33.73, 33.88 22.82 M2.78 64.69 C16.41 50.77, 27.99 33.07, 42.14 19.41 M2.78 64.69 C18.4 46.93, 33.69 28.66, 42.14 19.41 M5.8 67.32 C19.3 53.23, 32.2 39.14, 49.76 16.75 M5.8 67.32 C17.27 53.58, 28.61 40.28, 49.76 16.75 M8.82 69.94 C27.43 49.38, 43.03 32.04, 56.71 14.85 M8.82 69.94 C18.84 58.39, 31.38 45.12, 56.71 14.85 M11.84 72.57 C30.18 50.93, 49.49 29.35, 63.01 13.7 M11.84 72.57 C21.83 60.88, 33 47.22, 63.01 13.7 M14.86 75.19 C35.83 53.15, 55.17 28.03, 69.97 11.79 M14.86 75.19 C32.1 55.24, 49.39 33.91, 69.97 11.79 M17.88 77.81 C31.14 61.63, 47.76 44.29, 76.26 10.65 M17.88 77.81 C38.2 57.13, 56.36 35, 76.26 10.65 M21.55 79.68 C37.2 65.49, 47.37 49.68, 82.56 9.5 M21.55 79.68 C38.35 59.56, 56.33 39.85, 82.56 9.5 M24.57 82.31 C44.94 61.83, 63.36 39.24, 88.86 8.35 M24.57 82.31 C44.22 57.92, 66.96 33.18, 88.86 8.35 M28.24 84.18 C50.52 62.15, 70.99 36.13, 95.16 7.2 M28.24 84.18 C46.17 63.66, 64.3 42.78, 95.16 7.2 M31.92 86.05 C47.03 67.14, 63.75 51.51, 102.12 5.29 M31.92 86.05 C52.44 62.74, 73.18 37.42, 102.12 5.29 M36.25 87.16 C49.45 70.32, 64.62 52.73, 108.42 4.14 M36.25 87.16 C58.6 63.12, 78.16 38.62, 108.42 4.14 M40.58 88.28 C59.2 68.7, 75.85 48.45, 114.06 3.75 M40.58 88.28 C62.98 62.77, 83.04 38.95, 114.06 3.75 M44.26 90.15 C62.63 68.99, 81.75 45.6, 119.7 3.35 M44.26 90.15 C71.12 61.78, 95.2 32.04, 119.7 3.35 M48.59 91.26 C71.18 64.68, 98.26 34.75, 125.35 2.96 M48.59 91.26 C67.49 69.94, 86.85 47.69, 125.35 2.96 M52.26 93.13 C82.37 58.2, 112.25 24.92, 130.99 2.57 M52.26 93.13 C69.11 72.81, 87.12 52.19, 130.99 2.57 M56.59 94.25 C78.1 68.38, 100.42 42.59, 136.63 2.17 M56.59 94.25 C86.1 59.65, 115.89 26.27, 136.63 2.17 M60.27 96.12 C80.67 73.03, 98.31 50.91, 142.27 1.78 M60.27 96.12 C89.21 64.41, 117.14 30.62, 142.27 1.78 M64.6 97.23 C93.41 64.51, 119.75 33.47, 147.92 1.38 M64.6 97.23 C91.42 68.89, 116.38 38.33, 147.92 1.38 M69.59 97.59 C98.67 66.14, 125.33 33.48, 153.56 0.99 M69.59 97.59 C97.09 66.31, 123.93 34.77, 153.56 0.99 M73.92 98.7 C105.23 61.72, 135.08 26.15, 159.2 0.59 M73.92 98.7 C104.14 65.97, 131.73 32.58, 159.2 0.59 M78.9 99.06 C101.13 75.72, 120.68 52.42, 164.19 0.95 M78.9 99.06 C109.4 62.27, 139.63 26.97, 164.19 0.95 M83.23 100.18 C100.25 80.67, 117.55 58.06, 169.18 1.31 M83.23 100.18 C103.83 74.97, 125.63 50.09, 169.18 1.31 M87.57 101.29 C122.05 64.15, 154.54 27.76, 174.17 1.67 M87.57 101.29 C112.62 71.39, 139.04 42.26, 174.17 1.67 M92.55 101.65 C111.01 80.52, 130.17 61.01, 179.15 2.03 M92.55 101.65 C111.48 80.08, 129.32 58.74, 179.15 2.03 M96.88 102.77 C120.94 69.6, 148.12 41.2, 184.14 2.39 M96.88 102.77 C126.59 68.3, 155.79 33.33, 184.14 2.39 M101.21 103.88 C119.07 81.77, 141.01 57.63, 189.13 2.75 M101.21 103.88 C132.94 67.55, 162.4 32.15, 189.13 2.75 M106.2 104.24 C140.49 67.8, 173.92 29.18, 194.11 3.11 M106.2 104.24 C135.39 68.62, 165.92 36.02, 194.11 3.11 M110.53 105.36 C133.07 83.43, 151.84 57.62, 199.76 2.72 M110.53 105.36 C140.52 72.6, 169.44 37.69, 199.76 2.72 M115.52 105.72 C137.89 79.17, 164.68 51.97, 204.74 3.08 M115.52 105.72 C142.49 75.24, 169.67 42.7, 204.74 3.08 M120.51 106.08 C151.72 70.99, 182.34 35.06, 209.73 3.44 M120.51 106.08 C152.47 69.27, 184.2 31.68, 209.73 3.44 M125.49 106.44 C150.82 76.9, 176.44 47.75, 214.72 3.8 M125.49 106.44 C153.69 74.16, 181.17 42.62, 214.72 3.8 M130.48 106.8 C163.69 67.38, 202.15 25.85, 219.05 4.91 M130.48 106.8 C153.83 83.12, 174.6 57.75, 219.05 4.91 M135.47 107.16 C158.92 80.02, 178.46 55.53, 223.38 6.03 M135.47 107.16 C167.51 70.66, 199.41 32.72, 223.38 6.03 M140.45 107.52 C166.27 75, 194.06 42.49, 228.37 6.39 M140.45 107.52 C168.44 76.89, 193.64 47.7, 228.37 6.39 M146.1 107.13 C165.18 85.76, 184.29 64.62, 232.7 7.5 M146.1 107.13 C176.88 72.06, 206.83 36.78, 232.7 7.5 M151.08 107.49 C180.31 72.41, 212.64 33.92, 237.68 7.86 M151.08 107.49 C171.3 83.66, 191.87 59.23, 237.68 7.86 M156.07 107.85 C183.51 78.04, 209.28 46.63, 242.02 8.98 M156.07 107.85 C181.92 78.08, 206.23 49.77, 242.02 8.98 M161.06 108.21 C189.82 74.78, 219.34 39.6, 246.35 10.09 M161.06 108.21 C183.63 83.41, 206.32 56.02, 246.35 10.09 M166.05 108.57 C196.78 73, 229.63 38.44, 251.33 10.45 M166.05 108.57 C190.22 80.65, 215.4 52.74, 251.33 10.45 M171.03 108.93 C200.08 77.78, 229.5 43.29, 255.66 11.57 M171.03 108.93 C189.7 87.09, 208.14 64.74, 255.66 11.57 M176.68 108.53 C195.53 86.36, 216.86 63.32, 260 12.68 M176.68 108.53 C204.67 76.31, 234.69 42.76, 260 12.68 M182.32 108.14 C199.03 87.68, 217.71 69.85, 264.33 13.8 M182.32 108.14 C201.39 87.01, 221 64.73, 264.33 13.8 M188.62 106.99 C211.89 81.73, 232.71 54.4, 268.66 14.91 M188.62 106.99 C219.48 70.94, 251.22 36.54, 268.66 14.91 M194.26 106.59 C216.28 82.16, 233.31 60.45, 272.33 16.78 M194.26 106.59 C210.45 86.67, 228.16 67.22, 272.33 16.78 M199.9 106.2 C224.21 77.8, 249.79 45.35, 276.66 17.9 M199.9 106.2 C218.34 85.04, 237.34 61.94, 276.66 17.9 M205.55 105.8 C235.12 71.6, 263.82 37.89, 280.34 19.77 M205.55 105.8 C223.85 85.36, 240.44 65.45, 280.34 19.77 M211.19 105.41 C228.36 85.33, 250.24 61.42, 284.67 20.88 M211.19 105.41 C227.73 86.76, 244.78 66.69, 284.67 20.88 M216.83 105.01 C241.56 75.46, 268.17 46.69, 288.34 22.75 M216.83 105.01 C238.01 78.86, 260.94 54.56, 288.34 22.75 M223.13 103.87 C239.54 84.57, 256.67 68.58, 292.67 23.87 M223.13 103.87 C250.16 71.57, 279.26 40.98, 292.67 23.87 M230.09 101.96 C249.47 79.03, 270.01 56.1, 296.35 25.74 M230.09 101.96 C255.77 70.57, 282.9 40.63, 296.35 25.74 M236.39 100.81 C254.15 83.13, 271.16 60.07, 300.02 27.6 M236.39 100.81 C252.93 83.1, 269.83 64.3, 300.02 27.6 M243.34 98.91 C256.02 84.24, 272.4 69.24, 303.04 30.23 M243.34 98.91 C257.62 80.62, 272.59 64.69, 303.04 30.23 M249.64 97.76 C265.61 77.69, 281.26 62.54, 306.06 32.85 M249.64 97.76 C263.96 78.8, 280.57 61.39, 306.06 32.85 M255.94 96.61 C272.29 77.96, 286.37 58.78, 309.08 35.48 M255.94 96.61 C272.11 77.44, 290.35 57.36, 309.08 35.48 M262.9 94.71 C274.38 83.46, 285.66 68.47, 312.1 38.1 M262.9 94.71 C281.26 74.81, 299.9 53.41, 312.1 38.1 M269.85 92.8 C286.18 74.62, 303.95 55.87, 315.12 40.73 M269.85 92.8 C282.31 78.79, 294.71 64.35, 315.12 40.73 M278.12 89.39 C293.87 73.51, 307.06 55.13, 318.14 43.35 M278.12 89.39 C287.95 78.22, 295.85 69.28, 318.14 43.35 M286.39 85.97 C295.16 75.87, 299.07 70.05, 319.84 47.48 M286.39 85.97 C294.94 76.32, 304.12 64.75, 319.84 47.48 M294.65 82.56 C298.48 78.18, 304.45 70.78, 320.24 53.13 M294.65 82.56 C303.38 71.52, 313.6 60.77, 320.24 53.13 M302.26 79.9 C309.69 72.03, 316.33 62.16, 320.63 58.77 M302.26 79.9 C308.11 73.14, 313.65 67.38, 320.63 58.77" stroke="#7950f2" stroke-width="0.5" fill="none"></path><path d="M155.89 0.36 C173.2 -0.66, 193.41 1.18, 210.98 3.21 C228.56 5.24, 246.85 8.7, 261.35 12.54 C275.84 16.38, 288.32 21.09, 297.96 26.27 C307.6 31.44, 315.36 37.79, 319.2 43.58 C323.05 49.38, 323.92 55.02, 321 61.05 C318.09 67.08, 310.59 74.35, 301.71 79.76 C292.83 85.17, 281.37 89.48, 267.72 93.52 C254.08 97.56, 236.74 101.45, 219.83 104.01 C202.93 106.57, 184.48 108.75, 166.3 108.91 C148.12 109.06, 128.31 107.11, 110.76 104.93 C93.21 102.75, 75.34 99.45, 61.02 95.82 C46.71 92.2, 34.55 88.44, 24.86 83.18 C15.16 77.92, 6.59 70.34, 2.87 64.25 C-0.85 58.17, -0.23 52.7, 2.56 46.65 C5.35 40.61, 10.97 33.35, 19.62 27.99 C28.28 22.64, 40.73 18.39, 54.49 14.52 C68.26 10.64, 84.13 7.14, 102.24 4.76 C120.34 2.38, 151.68 0.74, 163.12 0.22 C174.55 -0.3, 170.65 0.8, 170.85 1.63 M180.3 0.82 C197.55 0.73, 217.43 2.92, 234.05 5.89 C250.67 8.87, 267.21 13.85, 280 18.64 C292.79 23.44, 303.8 29.2, 310.8 34.66 C317.8 40.12, 321.23 45.63, 322.01 51.42 C322.79 57.22, 321.01 63.69, 315.47 69.41 C309.93 75.14, 300.17 80.93, 288.77 85.76 C277.38 90.59, 262.7 95.08, 247.07 98.41 C231.45 101.74, 213.03 104.21, 195.03 105.76 C177.04 107.32, 156.92 108.32, 139.09 107.74 C121.27 107.17, 104.06 105.37, 88.09 102.29 C72.13 99.22, 56.15 93.69, 43.31 89.28 C30.46 84.86, 18.45 81.36, 11.02 75.79 C3.6 70.23, -0.59 62.4, -1.22 55.9 C-1.85 49.39, 1.55 42.53, 7.24 36.76 C12.94 31, 21.53 26.21, 32.94 21.3 C44.35 16.39, 60.04 10.84, 75.69 7.29 C91.34 3.75, 108.91 1.32, 126.84 0.02 C144.76 -1.28, 174.03 -0.94, 183.24 -0.5 C192.44 -0.06, 182.44 1.78, 182.06 2.69" stroke="#1971c2" stroke-width="1" fill="none"></path></g><g transform="translate(532.146332520958 201.11833495118034) rotate(0 107.51988220214838 25)"><text x="107.51988220214844" y="0" font-family="Virgil, Segoe UI Emoji" font-size="20px" fill="#1971c2" text-anchor="middle" style="white-space: pre;" direction="ltr" dominant-baseline="text-before-edge">Sua Licensa +MIT + </text><text x="107.51988220214844" y="25" font-family="Virgil, Segoe UI Emoji" font-size="20px" fill="#1971c2" text-anchor="middle" style="white-space: pre;" direction="ltr" dominant-baseline="text-before-edge">BSD + Apache</text></g><g stroke-linecap="round" transform="translate(472.5209655761719 579.6276245117188) rotate(0 208.75 69.83723449707031)"><path d="M256.68 0.83 C277.44 1.16, 299.16 5.49, 317.34 9.36 C335.53 13.24, 351.89 18.5, 365.79 24.09 C379.69 29.68, 392.38 36.15, 400.73 42.9 C409.09 49.64, 414.03 57.58, 415.92 64.56 C417.8 71.54, 416.78 77.99, 412.04 84.81 C407.3 91.62, 398.51 99.17, 387.48 105.44 C376.45 111.71, 362.04 117.5, 345.87 122.44 C329.7 127.38, 310.22 132.16, 290.44 135.09 C270.66 138.02, 248.77 139.49, 227.2 140.01 C205.64 140.53, 182.13 140.03, 161.04 138.19 C139.95 136.35, 119.07 132.85, 100.66 128.96 C82.25 125.07, 64.67 120.1, 50.59 114.84 C36.51 109.59, 24.32 103.89, 16.18 97.44 C8.03 90.98, 3.46 83.39, 1.71 76.13 C-0.04 68.87, 1.09 60.91, 5.68 53.87 C10.26 46.82, 18.2 39.95, 29.21 33.84 C40.21 27.73, 55.3 21.88, 71.72 17.19 C88.15 12.5, 107.88 8.63, 127.75 5.7 C147.61 2.76, 168.35 0.04, 190.92 -0.43 C213.5 -0.89, 249.86 2.05, 263.19 2.89 C276.52 3.74, 271.53 3.68, 270.91 4.65 M240.33 0.46 C260.71 0.23, 281.84 3.65, 301.1 6.79 C320.36 9.92, 340.24 13.9, 355.87 19.27 C371.5 24.64, 385.13 32.28, 394.89 39 C404.65 45.73, 411.25 52.73, 414.43 59.63 C417.61 66.52, 417.24 73.7, 413.97 80.4 C410.69 87.09, 404.31 93.26, 394.78 99.78 C385.26 106.31, 371.65 114.13, 356.82 119.56 C342 125, 324.65 129.34, 305.83 132.4 C287.01 135.47, 265.49 136.79, 243.9 137.94 C222.3 139.08, 197.97 140.27, 176.26 139.26 C154.54 138.26, 132.85 135.42, 113.61 131.92 C94.37 128.41, 76.05 123.19, 60.81 118.25 C45.57 113.31, 31.92 108.66, 22.15 102.26 C12.39 95.87, 5.52 86.81, 2.22 79.88 C-1.08 72.94, -0.91 67.3, 2.37 60.65 C5.65 54, 12.14 46.62, 21.89 39.96 C31.64 33.31, 45.73 26.3, 60.87 20.73 C76.02 15.15, 93.97 9.59, 112.74 6.54 C131.51 3.48, 152.19 3.16, 173.49 2.42 C194.79 1.68, 229.73 2.24, 240.54 2.1 C251.34 1.96, 238.89 0.88, 238.33 1.56" stroke="#1971c2" stroke-width="1" fill="none"></path></g><g transform="translate(630.5209045410156 591.3021087646484) rotate(0 66.75992584228516 12.5)"><text x="0" y="0" font-family="Virgil, Segoe UI Emoji" font-size="20px" fill="#1971c2" text-anchor="start" style="white-space: pre;" direction="ltr" dominant-baseline="text-before-edge">Novo Sofware</text></g><g transform="translate(576.6667175292969 314.4531707763672) rotate(0 66.75992584228516 12.5)"><text x="0" y="0" font-family="Virgil, Segoe UI Emoji" font-size="20px" fill="#1971c2" text-anchor="start" style="white-space: pre;" direction="ltr" dominant-baseline="text-before-edge">Novo Sofware</text></g><g transform="translate(572.6562805175781 173.94537353515625) rotate(0 66.75992584228516 12.5)"><text x="0" y="0" font-family="Virgil, Segoe UI Emoji" font-size="20px" fill="#1971c2" text-anchor="start" style="white-space: pre;" direction="ltr" dominant-baseline="text-before-edge">Novo Sofware</text></g><g transform="translate(580.1563415527344 442.27870178222656) rotate(0 66.75992584228516 12.5)"><text x="0" y="0" font-family="Virgil, Segoe UI Emoji" font-size="20px" fill="#1971c2" text-anchor="start" style="white-space: pre;" direction="ltr" dominant-baseline="text-before-edge">Novo Sofware</text></g><g stroke-linecap="round" transform="translate(130.22927856445312 88.0078125) rotate(0 35.338531494140625 33.91276550292969)"><path d="M11.02 9.58 C11.02 9.58, 11.02 9.58, 11.02 9.58 M11.02 9.58 C11.02 9.58, 11.02 9.58, 11.02 9.58 M-0.4 28.81 C5.89 21.65, 11.8 12.39, 21.25 3.9 M-0.4 28.81 C6.85 19.08, 13.69 11.47, 21.25 3.9 M0.66 33.7 C6.5 26.43, 13.74 20.74, 30.18 -0.27 M0.66 33.7 C10.31 22.27, 19.98 11.21, 30.18 -0.27 M1.71 38.58 C13.92 26.95, 23.44 13.95, 34.51 0.85 M1.71 38.58 C10.22 29.35, 17.89 18.58, 34.51 0.85 M2.76 43.47 C16.59 29.2, 26.94 15.77, 39.5 1.21 M2.76 43.47 C15.86 27.28, 28.65 12.64, 39.5 1.21 M3.81 48.36 C19.26 32.62, 31.32 14.64, 43.83 2.32 M3.81 48.36 C12.16 39.1, 20.27 28.79, 43.83 2.32 M6.17 51.74 C17.52 36.58, 32.55 22.12, 48.81 2.68 M6.17 51.74 C16.76 39.63, 25.35 28.89, 48.81 2.68 M9.19 54.36 C21.12 44, 32.51 30.3, 52.49 4.55 M9.19 54.36 C18.55 44.34, 27.52 33.32, 52.49 4.55 M12.21 56.99 C23.77 43.34, 32.87 33.39, 55.51 7.18 M12.21 56.99 C24.95 43.89, 36.86 30.37, 55.51 7.18 M15.23 59.61 C25.82 48.1, 33.98 37, 58.53 9.8 M15.23 59.61 C28.45 43.38, 42.87 28.11, 58.53 9.8 M18.25 62.24 C28.17 51.24, 40.8 38, 60.89 13.18 M18.25 62.24 C34.86 42.71, 50.51 23.5, 60.89 13.18 M21.26 64.86 C34.83 52.71, 43.89 39.19, 63.91 15.8 M21.26 64.86 C38.19 46.62, 53.38 28.25, 63.91 15.8 M26.25 65.22 C34.49 53.99, 46.19 38.83, 66.27 19.18 M26.25 65.22 C40.73 47.64, 56.81 29.14, 66.27 19.18 M31.24 65.58 C42.9 48.5, 58.72 33.43, 67.98 23.32 M31.24 65.58 C42.12 53.25, 52.51 41.12, 67.98 23.32 M36.23 65.94 C44.64 56.36, 48.56 51.08, 69.03 28.21 M36.23 65.94 C45.62 54.7, 55.68 42.73, 69.03 28.21 M41.21 66.3 C52.28 51.96, 62.76 37.94, 70.08 33.09 M41.21 66.3 C49.23 57.17, 57.35 49.17, 70.08 33.09 M50.79 61.38 C56.59 55.04, 65.17 46.23, 71.13 37.98 M50.79 61.38 C56.07 53.97, 62.56 49, 71.13 37.98" stroke="#fa5252" stroke-width="0.5" fill="none"></path><path d="M51.49 3.05 C57.55 5.46, 62.74 12.42, 65.95 18.34 C69.16 24.26, 71.73 32.19, 70.75 38.58 C69.77 44.97, 65.02 52.08, 60.07 56.71 C55.11 61.33, 47.72 65.05, 41.02 66.32 C34.32 67.6, 26.08 67.17, 19.87 64.36 C13.67 61.54, 7.22 55.27, 3.8 49.44 C0.38 43.61, -1.8 35.95, -0.65 29.36 C0.51 22.77, 5.83 14.84, 10.75 9.89 C15.67 4.94, 21.44 0.21, 28.88 -0.35 C36.32 -0.9, 50.5 5.15, 55.39 6.54 C60.29 7.92, 58.67 7.78, 58.24 7.95 M28.48 1.45 C35.12 0.23, 45.36 1.78, 52 4.44 C58.64 7.11, 65.48 11.54, 68.32 17.44 C71.16 23.34, 70.6 33.09, 69.03 39.83 C67.46 46.57, 63.54 53.41, 58.89 57.88 C54.24 62.35, 47.54 65.78, 41.11 66.64 C34.68 67.5, 26.75 66.12, 20.31 63.04 C13.88 59.96, 6.01 53.81, 2.51 48.16 C-0.99 42.51, -2.03 35.69, -0.68 29.16 C0.67 22.63, 5.28 13.72, 10.61 8.97 C15.95 4.23, 27.88 1.84, 31.35 0.68 C34.83 -0.48, 31.54 1.47, 31.47 2" stroke="#1971c2" stroke-width="1" fill="none"></path></g><g stroke-linecap="round" transform="translate(130.38552856445312 10) rotate(0 35.338531494140625 33.91276550292969)"><path d="M4.04 18.09 C4.04 18.09, 4.04 18.09, 4.04 18.09 M4.04 18.09 C4.04 18.09, 4.04 18.09, 4.04 18.09 M2.47 26 C11.12 16.62, 19.59 9.63, 22.15 3.36 M2.47 26 C9.91 18.3, 15.84 10.32, 22.15 3.36 M1.55 33.15 C8.66 24.9, 12 20.78, 28.45 2.21 M1.55 33.15 C9.09 23.9, 17.57 14.32, 28.45 2.21 M1.29 39.55 C11.56 27.98, 19.91 14.85, 34.1 1.81 M1.29 39.55 C9.8 29.86, 19.69 19.28, 34.1 1.81 M3 43.68 C12.34 29.81, 23.19 21.04, 40.39 0.66 M3 43.68 C15.99 26.67, 31.7 11.06, 40.39 0.66 M5.36 47.06 C16.58 34.44, 28.33 19.65, 44.73 1.78 M5.36 47.06 C15.08 35.73, 25.03 25.4, 44.73 1.78 M7.07 51.19 C20.17 35.22, 35.12 17.5, 48.4 3.65 M7.07 51.19 C19.24 38.57, 31.81 24.07, 48.4 3.65 M9.43 54.57 C20.12 39.84, 34.02 25.74, 52.07 5.52 M9.43 54.57 C24.47 38.5, 39.01 21.52, 52.07 5.52 M11.14 58.71 C22.37 45.16, 36.28 33.94, 55.75 7.39 M11.14 58.71 C29.79 37.51, 46.92 18.29, 55.75 7.39 M14.81 60.58 C30.73 42.9, 48.42 20.71, 59.42 9.26 M14.81 60.58 C31.62 43.9, 47.21 24.31, 59.42 9.26 M18.49 62.45 C34.9 45.69, 47.56 26.01, 62.44 11.88 M18.49 62.45 C27.21 52.34, 35.78 42.36, 62.44 11.88 M22.82 63.56 C30.53 51.77, 42.51 42.81, 64.15 16.01 M22.82 63.56 C32.27 53.12, 40.5 42.04, 64.15 16.01 M26.49 65.43 C40.36 53.8, 50.57 38.52, 65.86 20.15 M26.49 65.43 C36.06 53.78, 46.39 43.72, 65.86 20.15 M30.17 67.3 C39.61 56.07, 47.33 44.95, 67.56 24.28 M30.17 67.3 C43.1 50.86, 57.85 35.91, 67.56 24.28 M35.81 66.91 C42.34 60.51, 50.4 52.91, 69.27 28.42 M35.81 66.91 C46.84 52.92, 60.33 39.14, 69.27 28.42 M42.11 65.76 C50.73 55.21, 58.15 45.83, 68.35 35.57 M42.11 65.76 C50.92 53.8, 60.56 42.64, 68.35 35.57 M48.41 64.61 C53.38 58.58, 58.72 54.92, 66.78 43.48 M48.41 64.61 C55.97 56.85, 62.86 47.72, 66.78 43.48" stroke="#7950f2" stroke-width="0.5" fill="none"></path><path d="M41.35 -0.07 C48.2 0.41, 56.57 4.7, 61.25 9.41 C65.93 14.11, 68.64 21.38, 69.42 28.14 C70.2 34.9, 68.98 44.05, 65.96 49.96 C62.93 55.88, 57.19 60.72, 51.28 63.65 C45.37 66.58, 37.21 68.44, 30.52 67.56 C23.82 66.67, 16.1 63.1, 11.13 58.35 C6.16 53.59, 1.89 45.73, 0.69 39.04 C-0.51 32.36, 0.67 24.25, 3.93 18.23 C7.19 12.2, 13.97 5.88, 20.25 2.88 C26.54 -0.12, 37.73 0.47, 41.64 0.25 C45.56 0.02, 43.61 0.93, 43.75 1.54 M37.98 0.34 C44.76 -0.06, 52.6 2.68, 57.69 6.75 C62.78 10.82, 66.69 18.37, 68.51 24.77 C70.32 31.17, 71.07 38.76, 68.59 45.14 C66.12 51.53, 59.4 59.08, 53.64 63.08 C47.88 67.08, 40.84 69.82, 34.04 69.14 C27.23 68.45, 18.5 63.33, 12.8 58.97 C7.11 54.61, 1.83 49.04, -0.14 42.97 C-2.11 36.9, -1.62 28.8, 0.97 22.54 C3.56 16.27, 9.41 9, 15.4 5.37 C21.4 1.74, 33.19 1.45, 36.95 0.77 C40.71 0.09, 37.96 0.62, 37.95 1.3" stroke="#1971c2" stroke-width="1" fill="none"></path></g><g transform="translate(226.73965454101562 108.84115600585938) rotate(0 180.63980102539062 12.5)"><text x="0" y="0" font-family="Virgil, Segoe UI Emoji" font-size="20px" fill="#c92a2a" text-anchor="start" style="white-space: pre;" direction="ltr" dominant-baseline="text-before-edge">Código Fonte deve ser compartilhado</text></g><g transform="translate(222.72921752929688 30) rotate(0 209.72975158691406 12.5)"><text x="0" y="0" font-family="Virgil, Segoe UI Emoji" font-size="20px" fill="#1971c2" text-anchor="start" style="white-space: pre;" direction="ltr" dominant-baseline="text-before-edge">Código Fonte não precisa ser compartilado</text></g></svg>