<?xml version="1.0" encoding="UTF-8" standalone="no"?>
<svg
   width="1000"
   height="300"
   version="1.1"
   id="svg9"
   sodipodi:docname="publicdomain.svg"
   inkscape:version="1.1.2 (0a00cf5339, 2022-02-04)"
   xmlns:inkscape="http://www.inkscape.org/namespaces/inkscape"
   xmlns:sodipodi="http://sodipodi.sourceforge.net/DTD/sodipodi-0.dtd"
   xmlns="http://www.w3.org/2000/svg"
   xmlns:svg="http://www.w3.org/2000/svg">
  <defs
     id="defs13" />
  <sodipodi:namedview
     id="namedview11"
     pagecolor="#ffffff"
     bordercolor="#666666"
     borderopacity="1.0"
     inkscape:pageshadow="2"
     inkscape:pageopacity="0.0"
     inkscape:pagecheckerboard="0"
     showgrid="false"
     inkscape:zoom="0.60938364"
     inkscape:cx="141.94671"
     inkscape:cy="46.768568"
     inkscape:window-width="1920"
     inkscape:window-height="1044"
     inkscape:window-x="0"
     inkscape:window-y="0"
     inkscape:window-maximized="1"
     inkscape:current-layer="svg9" />
  <circle
     id="circle-border"
     cx="150"
     cy="150"
     r="150"
     style="stroke-width:1.53061" />
  <circle
     id="circle-inside"
     cx="150"
     cy="150"
     r="119.38776"
     fill="#ffffff"
     style="stroke-width:1.53061" />
  <circle
     id="c-border"
     cx="150"
     cy="150"
     r="84.18367"
     style="stroke-width:1.53061" />
  <circle
     id="c-inside"
     cx="150"
     cy="150"
     r="45.918365"
     fill="#ffffff"
     style="stroke-width:1.53061" />
  <rect
     id="c-cut"
     width="47.448978"
     height="38.265305"
     x="188.2653"
     y="130.10204"
     fill="#ffffff"
     style="stroke-width:1.53061" />
  <rect
     id="bar-margin"
     width="47.448978"
     height="188.2653"
     transform="rotate(45)"
     fill="#ffffff"
     x="188.32129"
     y="-93.311356"
     style="stroke-width:1.53061" />
  <rect
     id="bar"
     width="38.265305"
     height="267.85715"
     transform="rotate(45)"
     x="192.65053"
     y="-133.36989"
     style="stroke-width:1.53061" />
  <!-- for a thinner margin around the "bar" rect, use width=28 and rotate(45, 0, 176) -->
</svg>
